commit 36e5af8ad1c3368ff5516818a8c765aad02925ab
Author: Rock Neurotiko <miguelglafuente@gmail.com>
Date:   Mon Dec 7 20:39:00 2015 +0100

    Start gestion build

diff --git a/accumulated_lines.org b/accumulated_lines.org
index 5bac02a..7a7a143 100644
--- a/accumulated_lines.org
+++ b/accumulated_lines.org
@@ -96,3 +96,23 @@ SUM:                            97            714            326           3993
 >>=>>=>>=>>=>>=>>=>>=
 
 
+Date: lun dic  7 20:37:58 CET 2015
+
+http://cloc.sourceforge.net v 1.65  T=0.31 s (328.7 files/s, 18056.7 lines/s)
+-------------------------------------------------------------------------------
+Language                     files          blank        comment           code
+-------------------------------------------------------------------------------
+Scala                           78            643            255           3683
+CSS                              5             65             39            471
+XML                              2              6              5            160
+HTML                            15             28              7            157
+SQL                              2             40              5             90
+YAML                             1              0              0              5
+-------------------------------------------------------------------------------
+SUM:                           103            782            311           4566
+-------------------------------------------------------------------------------
+
+
+>>=>>=>>=>>=>>=>>=>>=
+
+
diff --git a/build.sbt b/build.sbt
index 9c1d5e5..9c84f2d 100644
--- a/build.sbt
+++ b/build.sbt
@@ -32,6 +32,8 @@ val play2auth = "jp.t2v" %% "play2-auth" % "0.14.1"
 val play2authsocial = "jp.t2v" %% "play2-auth-social" % "0.14.1" // for social login
 val play2authtest = "jp.t2v" %% "play2-auth-test" % "0.14.1" % "test"
 
+val scalaz = "org.scalaz" %% "scalaz-core" % "7.1.5"
+
 // The common settings
 lazy val commonSettings = Seq(
   version := "0.1.0",
@@ -48,6 +50,9 @@ lazy val server = (project in file("server")).
   settings(scalaJSProjects := clients,
     name := "server",
     pipelineStages := Seq(scalaJSProd, gzip),
+    jacoco.settings, //this is the important part.
+    //coverageEnabled := true,
+    //coverageExcludedPackages := "<empty>;Reverse.*;.*AuthConfigImpl.*;views.html;router",
     resolvers += "scalaz-bintray" at "https://dl.bintray.com/scalaz/releases",
     libraryDependencies ++= Seq(
       "com.vmunier" %% "play-scalajs-scripts" % "0.3.0",
@@ -70,8 +75,9 @@ lazy val server = (project in file("server")).
       specs2 % Test
     ),
     scalacOptions ++= Seq("-feature")
-  ).
-  settings(
+  ).settings(
+    parallelExecution in jacoco.Config := false
+  ).settings(
     // the name of the jar to generate and other things for the package
     assemblyJarName in assembly := "is2.jar",
     test in assembly := {},
@@ -87,8 +93,6 @@ lazy val server = (project in file("server")).
   aggregate(clients.map(projectToRef): _*).
   dependsOn(sharedJvm)
 
-
-
 lazy val client = (project in file("client")).
   settings(commonSettings: _*).
   settings(
@@ -103,7 +107,8 @@ lazy val client = (project in file("client")).
       "com.lihaoyi" %%% "scalarx" % "0.2.8",
       "com.lihaoyi" %%% "upickle" % "0.3.6",
       "be.doeraene" %%% "scalajs-jquery" % "0.8.1",
-      "org.monifu" %%% "monifu" % "1.0-RC3"
+      "org.monifu" %%% "monifu" % "1.0-RC3",
+      "com.github.japgolly.fork.scalaz" %%% "scalaz-core" % "7.1.2"
       // "com.lihaoyi" %%% "upickle" % "0.3.4"
     )
   ).enablePlugins(ScalaJSPlugin, ScalaJSPlay).
diff --git a/client/src/main/scala/AceptarReserva.scala b/client/src/main/scala/AceptarReserva.scala
index 04e186f..027d919 100644
--- a/client/src/main/scala/AceptarReserva.scala
+++ b/client/src/main/scala/AceptarReserva.scala
@@ -77,7 +77,8 @@ object AceptarReserva {
     $.getJSON(s"/api/v1/coches/$idcoche", success = (x: js.Any) => {
       val c = readDynamic[Coche](x)
       $("#cocheName").text(s"${c.marca} ${c.modelo}")
-      $("#cocheImage").attr("src", s"data:image/png;base64, ${c.foto}")
+      // $("#cocheImage").attr("src", s"data:image/png;base64, ${c.foto}")
+      $("#cocheImage").attr("src", s"/assets/cars/${c.foto}")
     })
     $("#usuarioField").text(idusuario)
     $("#reservanteField").text(idreservante)
diff --git a/client/src/main/scala/Gestion.scala b/client/src/main/scala/Gestion.scala
new file mode 100644
index 0000000..6108678
--- /dev/null
+++ b/client/src/main/scala/Gestion.scala
@@ -0,0 +1,287 @@
+package example
+
+import scalatags.JsDom._
+import all._
+import scala.scalajs.js
+import scala.scalajs.js.annotation.JSExport
+import org.scalajs.dom
+import js.Dynamic.{ global => g }
+import org.scalajs.jquery.{ jQuery=>$, _}
+import upickle.Js
+import upickle.{default => upickle}
+import jsclasses.{Franquicia}
+import shared.classes.{Estado, Gama}
+import Estado._
+import Gama._
+import shared.dbclasses.Coche
+import example.helpers.Implicits._
+import example.helpers.Methods._
+import scala.scalajs.concurrent.JSExecutionContext.Implicits.queue
+import scala.concurrent.Future
+import scalaz._
+import Scalaz.{id => _, option => _, _}
+
+@JSExport
+object Gestion {
+  var globalCoches: List[Coche] = List()
+  var globalMatriculas: List[String] = List()
+  val gamas: List[String] = List(Alta, Media, Gama.Baja)
+  val estados: List[String] = List(Disponible, Reservado, Carretera, Reparacion, Estado.Baja)
+  val estadosNames = List("Disponible", "Reservado", "En carretera", "En reparacion", "De baja")
+
+  def addCarSubmit(x: dom.Event) = {
+    val formD = new dom.FormData()
+    val matriculaRaw = $("#matriculaForm").`val`().asInstanceOf[String]
+    val marcaRaw = $("#marcaForm").`val`().asInstanceOf[String]
+    val modeloRaw = $("#modeloForm").`val`().asInstanceOf[String]
+    val gama = $("#gamaForm").`val`().asInstanceOf[String]
+    val fileList = $("#fotoForm").prop("files").asInstanceOf[dom.FileList]
+
+    def nonEmpty[T: Monoid](t: T, extra: String) = {
+      val m = implicitly[Monoid[T]]
+      if (m.zero == t)
+        s"No hay $extra".failureNel[T]
+      else
+        t.successNel[String]
+    }
+
+    val matV = nonEmpty(matriculaRaw, "matricula")
+    val marcaV = nonEmpty(marcaRaw, "marca")
+    val modeloV = nonEmpty(modeloRaw, "modelo")
+    val fileV = if (fileList.length == 0)
+      "No hay foto".failureNel[dom.FileList]
+    else fileList.successNel[String]
+
+    // Validateeee
+    (matV |@| marcaV |@| modeloV |@| fileV) { _ + _ + _ + _} match {
+      case Failure(x) => x foreach { Messager.alert(_) }
+      case Success(_) => {
+        formD.append("matricula", matriculaRaw)
+        formD.append("marca", marcaRaw)
+        formD.append("modelo", modeloRaw)
+        formD.append("gama", gama)
+        formD.append("foto", fileList(0))
+
+        $.ajax(js.Dynamic.literal(
+          url = "/gestionar/createCar",
+          data = formD,
+          processData= false,
+          contentType= false,
+          `type`= "POST",
+          success = (data: js.Any) => {
+            val matrRecv = readDynamic[String](data)
+            getAndAddCar(matrRecv)
+            g.$("#addCarModal").modal("hide")
+          }
+        ).asInstanceOf[JQueryAjaxSettings])
+      }
+    }
+  }
+
+  def getAndAddCar(matr: String) = {
+    $.getJSON(s"/api/v1/coches/$matr", success = (x: js.Any) => {
+      val coche = readDynamic[Coche](x)
+      $("#innerContent").append(generateCocheUI(coche).render)
+      g.$(s"#${matr}Estado").selectpicker()
+    })
+  }
+
+  def createSelector(idS: String, ops: List[(String, String)], f: String => Unit, nameS: String = "", search: Boolean = false) =
+    select(
+      id:=idS,
+      `class`:="selectpicker col-md-12",
+      if (search) "data-live-search".attr:="true",
+      name:=nameS,
+      onchange:= {() => {
+        val selected = $(s"#${idS}").`val`().asInstanceOf[String]
+        f(selected)
+      }},
+      ops map { case (x, y) => option(value:=x, y)}
+    )
+
+  def createEstadoSelector(matr: String, est: Estado, f: String => Unit) = {
+    def toS(e: Estado): String = e
+    createSelector(s"${matr}Estado", estados zip estadosNames, f)
+  }
+
+  def changeEstado(matr: String): String => Unit = (newEstado: String) => {
+    $(s"#${matr} .caption").find("p").last().text(s"$newEstado".capitalize)
+    $.ajax(js.Dynamic.literal(
+      url = s"/api/v1/coches/$matr",
+      data = js.JSON.stringify(js.Dynamic.literal(estado = newEstado)),
+      contentType = "application/json; charset=utf-8",
+      dataType = "json",
+      `type`= "PUT",
+      error = (jqXHR: js.Any, textStatus: String, error: String) => {
+        Messager.alert("Some error...")
+      },
+      success = (data: js.Any) => {
+        Messager.info(s"Estado de $matr cambiado a $newEstado")
+      }
+    ).asInstanceOf[JQueryAjaxSettings])
+  }
+
+  def generateCocheUI(c: Coche) = {
+    li(`class`:="col-xs-3 cocheTarjeta",
+      style:="margin-bottom: 5px;",
+      id:=c.matricula,
+      div(`class`:="thumbnail", style:="padding: 0; height: 100%;",
+        div(style:="padding: 4px;",
+          img(alt:=c.matricula, style:="width: 100%;",
+            src:=s"/assets/cars/${c.foto}"
+          )
+        ),
+        div(`class`:="caption",
+          h2(s"${c.marca} ${c.modelo}"),
+          p(s"Gama ${c.gama}"),
+          p(i(`class`:="icon icon-map-marker"), s"${c.estado}")
+        ),
+        div(`class`:="modal-footer",
+          style:="text-align: center;",
+          createEstadoSelector(c.matricula, c.estado, changeEstado(c.matricula))
+        )
+      )
+    )
+  }
+
+  def genericModal(title: String, tid: String, form: TypedTag[org.scalajs.dom.raw.HTMLFormElement], textButton: String, idButton: String, f: dom.Event => Unit) = {
+    div(`class`:="modal fade", id:=tid, tabindex:="-1", role:="dialog", "aria-labelledby".attr:="modalLabel", "aria-hidden".attr:="true",
+      div(`class`:="modal-dialog",
+        div(`class`:="modal-content",
+          div(`class`:="modal-header",
+            button(`type`:="button", `class`:="close", data("dismiss"):="modal",
+              span("aria-hidden".attr:="true", "×"), span(`class`:="sr-only", "Close")),
+              h3(`class`:="modal-title", id:="lineModalLabel", title)
+          ),
+          div(`class`:="modal-body",
+            form
+          ),
+          div(`class`:="modal-footer",
+            div(`class`:="btn-group btn-group-justified", role:="group", "aria-label".attr:="group button",
+              div(`class`:="btn-group", `role`:="group",
+                button(`type`:="button", id:=idButton, `class`:="btn btn-success btn-hover-green", data("action"):="save", role:="button", textButton, onclick:=f)
+              )
+            )
+          )
+        )
+      )
+    )
+  }
+
+  def hideByText(e: JQueryEventObject): js.Any = {
+    def carText(c: Coche) = s"${c.matricula}${c.marca}${c.modelo}${c.gama}${c.estado}"
+    val text = $("#filtrarText").`val`().asInstanceOf[String]
+    text.replaceAll(" ", "").toLowerCase() match {
+      case "" => globalCoches map { car => $(s"#${car.matricula}").fadeIn(50)}
+      case t => {
+        globalCoches map {car =>
+          if (carText(car).replaceAll(" ", "").toLowerCase().contains(t))
+            $(s"#${car.matricula}").fadeIn(50)
+          else
+            $(s"#${car.matricula}").fadeOut(50)
+        }
+      }
+    }
+  }
+
+  val header = div(`class`:="container col-md-12",
+    style:="height: 4em; margin-top: 3px; margin-bottom: 10px; border: 1px solid black;",
+    div(`class`:="row", style:="display: flex; align-items: center; justify-content: center;",
+      button(`class`:="btn btn-success", data("toggle"):="modal", data("target"):="#addCarModal", style:="margin: 5px;", "Añadir coche"),
+      button(`class`:="btn btn-success", data("toggle"):="modal", data("target"):="#payModal", style:="margin: 5px;", "Hacer pago"),
+      input(`class`:="form-control login-input", "id".attr:="filtrarText",
+        placeholder:="Filtrar por texto", style:="color: black; width: 30%;")
+    )
+  )
+
+  val innerContent = ul(`class`:="thumbnails col-md-12 list-unstyled",
+    id:="innerContent",
+    style:="height: 100%; border: 1px solid black; display: flex; flex-flow: row wrap; padding-top: 5px; padding-bottom: 5px;"
+  )
+
+  val addForm = form(
+    div(`class`:="form-group",
+      label(`for`:="matriculaForm", "Matricula"),
+      input(`type`:="text", `class`:="form-control", id:="matriculaForm", name:="matricula", placeholder:="Matricula")
+    ),
+    div(`class`:="form-group",
+      label(`for`:="marcaForm", "Marca"),
+      input(`type`:="text", `class`:="form-control", id:="marcaForm", name:="marca", placeholder:="Marca")
+    ),
+    div(`class`:="form-group",
+      label(`for`:="modeloForm", "Modelo"),
+      input(`type`:="text", `class`:="form-control", id:="modeloForm", name:="modelo", placeholder:="Modelo")
+    ),
+    div(`class`:="form-group",
+      label(`for`:="gamaForm", "Gama"),
+      createSelector("gamaForm", gamas zip gamas, x => {}, "gama")
+    ),
+    div(`class`:="form-group",
+      label(`for`:="fotoForm", "Foto"),
+      input(`type`:="file", id:="fotoForm")
+        // p(`class`:="help-block", "Example block-level help text here.")
+    )
+  )
+
+  def paymentForm = form(
+    div(`class`:="form-group",
+      label(`for`:="cocheForm", "Matricula del coche"),
+      createSelector("cocheForm", globalMatriculas zip globalMatriculas, x => {}, "coche", true)
+    )
+  )
+
+  def carModal = genericModal("Añadir coche", "addCarModal", addForm, "Añadir!", "submitcoche", addCarSubmit)
+  def payModal = genericModal("Hacer pago", "payModal", paymentForm, "Hacer pago", "hacerpago", x => {})
+
+  def resetM(ids: String, rend: TypedTag[org.scalajs.dom.raw.HTMLDivElement], cb: () => Unit = () => {}): Unit = {
+    $(s"#$ids").on("hidden.bs.modal", (e: JQueryEventObject) => {
+      $(e.target).remove()
+      $("body").append(rend.render)
+      resetM(ids, rend, cb)
+      cb()
+    })
+  }
+
+  @JSExport
+  def main(fid: Int) = {
+    $.get("/api/v1/coches/matriculas?disponible=true", success = (x: js.Any) => {
+      globalMatriculas = readDynamic[List[String]](x)
+      $("#payModal").remove()
+      $("body").append(payModal.render)
+      // Reset pay modal
+      resetM("payModal", payModal, () => g.$("#cocheForm").selectpicker())
+    })
+
+    $("body").append(carModal.render)
+    $("body").append(payModal.render)
+
+    $("#content").append(header.render)
+    $("#content").append(innerContent.render)
+
+    $("#filtrarText").keyup(hideByText _)
+
+    // Focus first input
+    $(dom.document).on("shown.bs.modal", (e: JQueryEventObject) => {
+      $(e.target).find("input").first().focus()
+    })
+    // Reset car modal
+    resetM("addCarModal", carModal())
+
+    val cochesOrder: Order[Coche] = implicitly[Order[String]].contramap[Coche](_.matricula)
+
+    $.getJSON(s"/api/v1/franquicias/$fid/coches", success = (x: js.Any) => {
+      val coches = readDynamic[List[Coche]](x)
+      globalCoches = coches
+      val target = $("#innerContent")
+
+      coches.sorted(cochesOrder.toScalaOrdering) map { car =>
+        target.append(generateCocheUI(car).render).children(s"#${car.matricula}")
+      }
+
+      coches map { car => {
+        $(s"#${car.matricula}Estado").`val`(car.estado: String)
+        g.$(s"#${car.matricula}Estado").selectpicker("render")
+      } }
+    })
+  }
+}
diff --git a/client/src/main/scala/Header.scala b/client/src/main/scala/Header.scala
index d011eca..aaa4ac5 100644
--- a/client/src/main/scala/Header.scala
+++ b/client/src/main/scala/Header.scala
@@ -10,13 +10,16 @@ import scala.scalajs.js
 import scala.scalajs.js.annotation.JSExport
 import org.scalajs.dom
 import org.scalajs.jquery.{jQuery=>$,_}
+import shared.classes.TipoUsuario
+import TipoUsuario._
 import shared.dbclasses.Usuario
 import scala.util.Try
 
 @JSExport
 object Header {
   @JSExport
-  def main(user: String) = {
+  def main(user: String, tipoStr: String) = {
+    val tipo: TipoUsuario = tipoStr
     val needToLogin = li(`class`:="dropdown",
       a(href:="#", `class`:="dropdown-toggle", data("toggle"):="dropdown",
         b("Iniciar Sesion"), span(`class`:="caret")),
@@ -47,7 +50,7 @@ object Header {
       )
     )
 
-    def userLogged(user: String) = {
+    def userLogged(user: String, extra: scalatags.Text.TypedTag[String]) = {
       li(`class`:="dropdown",
         a(href:="#", `class`:="dropdown-toggle", data("toggle"):="dropdown",
           user, span(`class`:="glyphicon glyphicon-user pull-right", style:="margin-left: 8px; padding-top: 3px;")),
@@ -55,6 +58,7 @@ object Header {
           li(a(rel:="profile", href:="/profile", title:="Profile", b("Profile"),
             span(`class`:="glyphicon glyphicon-cog pull-right", style:="margin-top: -16px;")
           )),
+          extra,
           li(
             a(rel:="logout", href:="/logout", title:="Logout", b("Logout"),
               span(`class`:="glyphicon glyphicon-log-out pull-right", style:="margin-top: -16px;")
@@ -64,9 +68,19 @@ object Header {
       )
     }
 
+    val extraMenu = tipo match {
+      case Empleado => li(a(rel:="gestionar", href:="/gestionar", title:="Gestion", b("Gestion"),
+        span(`class`:="glyphicon glyphicon-cog pull-right", style:="margin-top: -16px;")
+      ))
+      case Admin => li(a(rel:="admin", href:="/admin", title:="Admin", b("Admin"),
+        span(`class`:="glyphicon glyphicon-cog pull-right", style:="margin-top: -16px;")
+      ))
+      case _ => li()
+    }
+
     val userHTML = user match {
       case "" => needToLogin
-      case user => userLogged(user)
+      case user => userLogged(user, extraMenu)
     }
 
     val headerHTML =
diff --git a/client/src/main/scala/Messager.scala b/client/src/main/scala/Messager.scala
new file mode 100644
index 0000000..2208ba8
--- /dev/null
+++ b/client/src/main/scala/Messager.scala
@@ -0,0 +1,44 @@
+package example
+
+import scalatags.JsDom._
+import all._
+import scala.scalajs.js
+import scala.scalajs.js.annotation.JSExport
+import org.scalajs.dom
+import js.Dynamic.{ global => g }
+import org.scalajs.jquery.{ jQuery=>$, _}
+import upickle.Js
+import upickle.{default => upickle}
+import jsclasses.{Franquicia}
+import shared.classes.{Estado, Gama}
+import Estado._
+import Gama._
+import shared.dbclasses.Coche
+import example.helpers.Implicits._
+import example.helpers.Methods._
+import scala.scalajs.concurrent.JSExecutionContext.Implicits.queue
+import scala.concurrent.Future
+
+@JSExport
+object Messager {
+  def base(extra: String, msg: TypedTag[org.scalajs.dom.raw.HTMLElement]) =
+    div(`class`:=s"alert alert-$extra alert-dismissable",
+      button(`type`:="button",
+        `class`:="close",
+        data("dismiss"):="alert",
+        "aria-hidden".attr:="true", "×"),
+      msg
+    )
+
+  def addToGroup(m: TypedTag[org.scalajs.dom.raw.HTMLElement], group: String = ".alert-group") =
+    $(group).append(m.render)
+
+  @JSExport
+  def createAlert(msg: String) = base("danger", strong(msg))
+
+  @JSExport
+  def alert(msg: String) = addToGroup(base("danger", strong(msg)))
+
+  @JSExport
+  def info(msg: String) = addToGroup(base("info", label(msg)))
+}
diff --git a/client/src/main/scala/Reserva.scala b/client/src/main/scala/Reserva.scala
index b1eba1d..fda8aaa 100644
--- a/client/src/main/scala/Reserva.scala
+++ b/client/src/main/scala/Reserva.scala
@@ -93,7 +93,7 @@ object Reserva {
             name:="tarjeta", placeholder:="4707517714551133")),
 
         div(`class`:="login-top-row",
-        div(`class`:="form-group", label("Caducidad de la tarjeta"),
+          div(`class`:="form-group", label("Caducidad de la tarjeta"),
           div(`class`:="input-group date",
             input(`type`:="text", `class`:="form-control login-input", value:=s"${today.getMonth()}/${today.getFullYear().toString().substring(2)}", placeholder:=s"${today.getMonth()}/${today.getFullYear().toString().substring(2)}", id:="caducidadtarjeta", name:="caducidadtarjeta",
               span(`class`:="input-group-addon", i(`class`:="glyphicon glyphicon-th"))))),
diff --git a/client/src/main/scala/ShowCochesFranquicia.scala b/client/src/main/scala/ShowCochesFranquicia.scala
index abe3b55..a52f2f2 100644
--- a/client/src/main/scala/ShowCochesFranquicia.scala
+++ b/client/src/main/scala/ShowCochesFranquicia.scala
@@ -6,7 +6,7 @@ import scala.scalajs.js
 import scala.scalajs.js.annotation.JSExport
 import org.scalajs.dom
 import js.Dynamic.{ global => g }
-import org.scalajs.jquery.{ jQuery=>$ }
+import org.scalajs.jquery.{ jQuery=>$, _}
 import upickle.Js
 import upickle.{default => upickle}
 import jsclasses.{Franquicia, Coche}
@@ -20,11 +20,14 @@ import scala.concurrent.Future
 @JSExport
 object ShowCochesFranquicia {
   var franquiciaId = -1
+  var globalCoches: List[Coche] = List()
 
   def ui() = {
     div(
       div(id:="info", style:="text-align: center;"),
-      ul(`class`:="thumbnails list-unstyled", id:="cochesContainer")
+      ul(`class`:="thumbnails col-md-12 list-unstyled",
+        id:="cochesContainer",
+        style:="height: 100%; display: flex; flex-flow: row wrap; align-items: center; justify-content: center;")
     )
   }
 
@@ -35,13 +38,14 @@ object ShowCochesFranquicia {
 
   def generateCocheUI(c: Coche) = {
     val dispo = c.estado.isInstanceOf[Disponible.type]
-    li(`class`:="col-md-3",
+    li(`class`:="col-md-3 cocheTarjeta",
       id:=c.matricula,
       if (!dispo) disabled,
-      div(`class`:="thumbnail", style:="padding: 0;",
+      div(`class`:="thumbnail", style:="padding: 0; height: 100%;",
         div(style:="padding: 4px;",
-          img(alt:="300x200", style:="width: 100%;", height:="150px", width:="200px",
-            src:=s"data:image/png;base64, ${c.foto}"
+          img(alt:=c.matricula, style:="width: 100%;", height:="150px", // width:="200px",
+                                                                        // src:=s"data:image/png;base64, ${c.foto}"
+            src:=s"/assets/cars/${c.foto}"
           )
         ),
         div(`class`:="caption", // style:="text-align: left;",
@@ -60,49 +64,104 @@ object ShowCochesFranquicia {
     )
   }
 
-  // def t(c: Coche) = {
-  //   val dispo = c.estado.isInstanceOf[Disponible.type]
-  //   div(
-  //     id:=c.matricula,
-  //     if (!dispo) disabled,
-  //     `class`:=s"coche ${if (!dispo) "nodisponible"}",
-  //     h3(s"${c.marca} ${c.modelo} - Gama ${c.gama} - ${c.estado}"),
-  //     img(src:=s"data:image/png;base64, ${c.foto}"),
-  //     button(
-  //       onclick:=reservarCoche(c.matricula) _,
-  //       if (!dispo) disabled,
-  //       if (dispo) "Reservar" else "No disponible"
-  //     )
-  //   )
-  // }
+  def createSelector(name: String, x: List[Tuple2[String, String]], f: String => Unit) = {
+    select(
+      id:=name,
+      `class`:="selectpicker",
+      "data-live-search".attr:="true",
+      onchange:= {() => {
+        val selected = $(s"#$name").`val`().asInstanceOf[String]
+        f(selected)
+      }},
+      x map { case (y, z) => option(value:=y, z) }
+    )
+  }
+
+  def equalGamaOrDefault(g: String, g2: String) = g.toLowerCase == "gama" || g.toLowerCase == g2.toLowerCase
+
+  def hideByGama(g: String) = {
+    globalCoches map { c =>
+      val selector = $(s"#${c.matricula}")
+      equalGamaOrDefault(g, c.gama) match {
+        case false => selector.fadeOut(50)
+        case true => selector.fadeIn(50)
+      }
+    }
+  }
+
+  def hideByText(e: JQueryEventObject): js.Any = {
+    def carText(c: Coche) = s"${c.matricula}${c.marca}${c.modelo}${c.gama}${c.estado}"
+    val gamaSelected = $("#selectGama").`val`().asInstanceOf[String]
+    val text = $("#filtrarText").`val`().asInstanceOf[String]
+    text.replaceAll(" ", "").toLowerCase() match {
+      case "" => hideByGama(gamaSelected)
+      case t => {
+        globalCoches map {car =>
+          if (carText(car).replaceAll(" ", "").toLowerCase().contains(t) && equalGamaOrDefault(gamaSelected, car.gama))
+            $(s"#${car.matricula}").fadeIn(50)
+          else
+            $(s"#${car.matricula}").fadeOut(50)
+        }
+      }
+    }
+  }
 
   @JSExport
   def main(id: Int, calle: String, numero: Int, pais: String, comunidad: String, poblacion: String, codigopostal: Int) = {
     franquiciaId = id
     $("#content").append(ui().render)
     $("#info").append(
-      div(
-        h3(s"$calle - $numero (CP: $codigopostal)")
+      div(style:="width: 50%;margin: 0 auto;",
+        h3(s"$calle - $numero (CP: $codigopostal)"),
+        div(`class`:="login-top-row", style:="width: 100%",
+          div(`class`:="form-group", style:="margin-right: 0px;",
+            createSelector("selectGama", List(("gama", "Gama"), ("Alta", "Alta"), ("Media", "Media"), ("Baja", "Baja")), hideByGama)),
+          div(`class`:="form-group",
+            input(`class`:="form-control login-input", "id".attr:="filtrarText",
+              placeholder:="Filtrar por texto", style:="color: black;")
+          )
+
+        )
       ).render
     )
 
+    g.window.setTimeout(() => {
+      $(".btn.dropdown-toggle.btn-default").css("width", "70%")
+    }, 100)
+
+    $("#filtrarText").keyup(hideByText _)
+
     $("#cochesContainer").empty().append(img(src:="/assets/images/loadCoches.gif").render)
     $.getJSON(s"/api/v1/franquicias/$id/coches", success = (x: js.Any) => {
 
       val coches = readDynamic[List[Coche]](x) filter { !_.estado.isInstanceOf[Baja.type] }
-
-      val cochesDivs = if (coches.length > 0) (coches map generateCocheUI)
-      else List(h1("No hay coches en esta franquicia ahora mismo..."))
-
+      globalCoches = coches
+      // val cochesDivs = if (coches.length > 0) (coches map generateCocheUI)
+      // else List(h1("No hay coches en esta franquicia ahora mismo..."))
 
       g.window.setTimeout(() => {
         val target = $("#cochesContainer")
         target.children().fadeOut(300)
-        val tf = Future { cochesDivs.render }
 
-        tf map {
-          target.append(_).fadeIn(300)
-        }
+        g.window.setTimeout(() => {
+          // var maxHeight = 0
+          if (coches.length > 0) {
+            coches map { car => {
+              target.append(generateCocheUI(car).render)
+              // maxHeight = js.Math.max($(s"#${car.matricula}").height().toInt, maxHeight)
+              $(s"#${car.matricula} img").width($(s"#${car.matricula}").width() - 10)
+            }}
+
+            // coches map { car =>
+            //   $(s"#${car.matricula}").height(maxHeight.toDouble)
+            // }
+
+          }
+          else target.append(h1("No hay coches en esta franquicia ahora mismo...").render)
+        }, 300)
+
+        // val rendered = cochesDivs.render
+        // target.append(rendered).fadeIn(300)
       }, 2200)
     })
   }
diff --git a/client/src/main/scala/VerReserva.scala b/client/src/main/scala/VerReserva.scala
index 24cc445..082482b 100644
--- a/client/src/main/scala/VerReserva.scala
+++ b/client/src/main/scala/VerReserva.scala
@@ -73,7 +73,8 @@ object VerReserva {
     $.getJSON(s"/api/v1/coches/$coche", success = (x: js.Any) => {
       val c = readDynamic[Coche](x)
       $("#cocheName").text(s"${c.marca} ${c.modelo}")
-      $("#cocheImage").attr("src", s"data:image/png;base64, ${c.foto}")
+      // $("#cocheImage").attr("src", s"data:image/png;base64, ${c.foto}")
+      $("#cocheImage").attr("src", s"/assets/cars/${c.foto}")
     })
     $("#usuarioField").text(usuario)
     $("#reservanteField").text(reservante)
diff --git a/project/plugins.sbt b/project/plugins.sbt
index b53f18a..d04e6f7 100644
--- a/project/plugins.sbt
+++ b/project/plugins.sbt
@@ -21,3 +21,7 @@ addSbtPlugin("org.scala-js" % "sbt-scalajs" % "0.6.5")
 addSbtPlugin("com.vmunier" % "sbt-play-scalajs" % "0.2.8")
 
 addSbtPlugin("com.typesafe.sbt" % "sbt-gzip" % "1.0.0")
+
+// coverage
+addSbtPlugin("de.johoop" % "jacoco4sbt" % "2.1.6")
+addSbtPlugin("org.scoverage" % "sbt-scoverage" % "1.3.3")
diff --git a/public/cars/600.jpg b/public/cars/600.jpg
new file mode 100644
index 0000000..f8ed29c
Binary files /dev/null and b/public/cars/600.jpg differ
diff --git a/public/cars/batmovil.jpg b/public/cars/batmovil.jpg
new file mode 100644
index 0000000..6208ba7
Binary files /dev/null and b/public/cars/batmovil.jpg differ
diff --git a/public/cars/c4.jpg b/public/cars/c4.jpg
new file mode 100644
index 0000000..178f0b5
Binary files /dev/null and b/public/cars/c4.jpg differ
diff --git a/public/cars/ferraryf80.jpg b/public/cars/ferraryf80.jpg
new file mode 100644
index 0000000..519b722
Binary files /dev/null and b/public/cars/ferraryf80.jpg differ
diff --git a/public/cars/focus.jpg b/public/cars/focus.jpg
new file mode 100644
index 0000000..6da0381
Binary files /dev/null and b/public/cars/focus.jpg differ
diff --git a/public/cars/hummer.jpg b/public/cars/hummer.jpg
new file mode 100644
index 0000000..6fcefb7
Binary files /dev/null and b/public/cars/hummer.jpg differ
diff --git a/public/cars/mazda3.jpg b/public/cars/mazda3.jpg
new file mode 100644
index 0000000..1f2d810
Binary files /dev/null and b/public/cars/mazda3.jpg differ
diff --git a/public/cars/porsche911.jpg b/public/cars/porsche911.jpg
new file mode 100644
index 0000000..4fd6fcb
Binary files /dev/null and b/public/cars/porsche911.jpg differ
diff --git a/public/cars/saxo.jpg b/public/cars/saxo.jpg
new file mode 100644
index 0000000..0b4e598
Binary files /dev/null and b/public/cars/saxo.jpg differ
diff --git a/public/cars/troncomovil.jpg b/public/cars/troncomovil.jpg
new file mode 100644
index 0000000..2824663
Binary files /dev/null and b/public/cars/troncomovil.jpg differ
diff --git a/server/app/assets/stylesheets/alert.css b/server/app/assets/stylesheets/alert.css
new file mode 100644
index 0000000..570469d
--- /dev/null
+++ b/server/app/assets/stylesheets/alert.css
@@ -0,0 +1,37 @@
+.alert-group>.alert:first-child:not(:last-child){
+    -webkit-border-top-left-radius:5px;
+    -webkit-border-top-right-radius:5px;
+    -webkit-border-bottom-right-radius:0;
+    -webkit-border-bottom-left-radius:0;
+    -moz-border-radius-topleft:5px;
+    -moz-border-radius-topright:5px;
+    -moz-border-radius-bottomright:0;
+    -moz-border-radius-bottomleft:0;
+    border-top-left-radius:5px;
+    border-top-right-radius:5px;
+    border-bottom-right-radius:0;
+    border-bottom-left-radius:0;
+    margin-bottom:0
+}
+.alert-group>.alert:not(:first-child):not(:last-child){
+    -webkit-border-radius:0;
+    -moz-border-radius:0;
+    border-radius:0;
+    border-top:0;
+    margin-bottom:0
+}
+.alert-group>.alert:last-child:not(:first-child){
+    -webkit-border-top-left-radius:0;
+    -webkit-border-top-right-radius:0;
+    -webkit-border-bottom-right-radius:5px;
+    -webkit-border-bottom-left-radius:5px;
+    -moz-border-radius-topleft:0;
+    -moz-border-radius-topright:0;
+    -moz-border-radius-bottomright:5px;
+    -moz-border-radius-bottomleft:5px;
+    border-top-left-radius:0;
+    border-top-right-radius:0;
+    border-bottom-right-radius:5px;
+    border-bottom-left-radius:5px;
+    border-top:0
+}
diff --git a/server/app/assets/stylesheets/main.css b/server/app/assets/stylesheets/main.css
index 1246224..e49c7e9 100644
--- a/server/app/assets/stylesheets/main.css
+++ b/server/app/assets/stylesheets/main.css
@@ -27,7 +27,7 @@ body {
     /* overflow-y: auto; */
     /* display:flex;justify-content:center;align-items:center;width:80%; */
     background: white;
-    padding-top: 50px;
+    padding-top: 58px;
     padding-bottom: 50px;
     min-height: 100%;
 }
diff --git a/server/app/aux/Methods.scala b/server/app/aux/Methods.scala
index 6453690..6631b4e 100644
--- a/server/app/aux/Methods.scala
+++ b/server/app/aux/Methods.scala
@@ -3,4 +3,5 @@ package aux
 object Methods {
   def applyImpl[T, R] (implicit f: T => R): (T => R) = (x: T) => f(x)
   def userToName(u: Option[shared.dbclasses.Usuario]) = u map { _.nombre } getOrElse ""
+  def userToType(u: Option[shared.dbclasses.Usuario]) = u map { _.tipo } getOrElse shared.classes.TipoUsuario.Anonimo
 }
diff --git a/server/app/controllers/AwesomeApp.scala b/server/app/controllers/AwesomeApp.scala
index f8948bd..e6fecfc 100644
--- a/server/app/controllers/AwesomeApp.scala
+++ b/server/app/controllers/AwesomeApp.scala
@@ -6,18 +6,18 @@ import javax.inject.Inject
 import tables.{FranquiciaDB, TemporalReservaDB}
 import auth.AuthConfigImpl
 import jp.t2v.lab.play2.auth.OptionalAuthElement
-import aux.Methods.userToName
+import aux.Methods.{userToName, userToType}
 
 class AwesomeApplication @Inject() (franquiciaDB: FranquiciaDB, temporalReservaDB: TemporalReservaDB) extends Controller with OptionalAuthElement with AuthConfigImpl {
 
   def main() = StackAction { implicit request =>
-    Ok(views.html.newmain(userToName(loggedIn)))
+    Ok(views.html.newmain(userToName(loggedIn), userToType(loggedIn)))
   }
 
   def showCochesFranquicia(id: Int) = AsyncStack { implicit request =>
     temporalReservaDB.removeOld() flatMap { _ =>
       franquiciaDB.getFranquicia(id) map {
-        case Some(f) => Ok(views.html.showfranquicia(id, f.calle, f.numero, f.pais, f.comunidad, f.poblacion, f.codigopostal, userToName(loggedIn)))
+        case Some(f) => Ok(views.html.showfranquicia(id, f.calle, f.numero, f.pais, f.comunidad, f.poblacion, f.codigopostal, userToName(loggedIn), userToType(loggedIn)))
         case None => NotFound(views.html.notFound(request.path))
       }
     }
diff --git a/server/app/controllers/AwesomeLoggedApp.scala b/server/app/controllers/AwesomeLoggedApp.scala
index 81e72cf..1db85d9 100644
--- a/server/app/controllers/AwesomeLoggedApp.scala
+++ b/server/app/controllers/AwesomeLoggedApp.scala
@@ -19,6 +19,7 @@ import aux.Methods.userToName
 import play.api.data.Form
 import play.api.data.Forms._
 import java.sql.{Timestamp, Date}
+import java.util.Calendar
 import scala.language.implicitConversions
 import scala.language.postfixOps
 import scala.concurrent.duration._
@@ -200,16 +201,21 @@ class AwesomeLoggedApplication @Inject() (franquiciaDB: FranquiciaDB, cocheDB: C
   def reserva(id: Int) = AsyncStack(AuthorityKey -> Normal) { implicit request =>
     reservaDB.getReserva(id) map {
       case Some(reserva) => (loggedIn.dni == reserva.idusuario) || (loggedIn.dni == reserva.idreservante) match {
-        case true => Ok(views.html.showreserva(
-          reserva.id.get,
-          reserva.idusuario,
-          reserva.idreservante,
-          reserva.idcoche,
-          "****" + reserva.tarjeta.substring(math.max(reserva.tarjeta.length - 4, 0), reserva.tarjeta.length),
-          s"${reserva.fechainicio.getDate()}/${reserva.fechainicio.getMonth()}/${reserva.fechainicio.getYear()}",
-          reserva.tiporeserva,
-          reserva.precio,
-          loggedIn.nombre))
+        case true => {
+          val cal = Calendar.getInstance()
+          cal.setTime(reserva.fechainicio)
+          Ok(views.html.showreserva(
+            reserva.id.get,
+            reserva.idusuario,
+            reserva.idreservante,
+            reserva.idcoche,
+            "****" + reserva.tarjeta.substring(math.max(reserva.tarjeta.length - 4, 0), reserva.tarjeta.length),
+            // s"${reserva.fechainicio.getDate()}/${reserva.fechainicio.getMonth()}/${reserva.fechainicio.getYear()}",
+            s"${cal.get(Calendar.DAY_OF_MONTH)}/${cal.get(Calendar.MONTH)}/${cal.get(Calendar.YEAR)}",
+            reserva.tiporeserva,
+            reserva.precio,
+            loggedIn.nombre))
+        }
         case falte => Redirect("/profile")
       }
       case None => Redirect("/profile")
diff --git a/server/app/controllers/GestionarFranquicia.scala b/server/app/controllers/GestionarFranquicia.scala
new file mode 100644
index 0000000..5e12f2f
--- /dev/null
+++ b/server/app/controllers/GestionarFranquicia.scala
@@ -0,0 +1,89 @@
+package controllers
+
+import java.text.SimpleDateFormat
+import play.api.mvc._
+import play.api.libs.concurrent.Execution.Implicits.defaultContext
+import javax.inject.Inject
+import auth.AuthConfigImpl
+import play.api.libs.json.Json
+import play.api.libs.json.Json._
+import scala.concurrent.{Future, Await}
+import jp.t2v.lab.play2.auth.AuthElement
+import shared.classes.{TipoUsuario, Estado, TipoReserva}
+import TipoUsuario._
+import Estado._
+import TipoReserva._
+import tables.{FranquiciaDB, CocheDB, CochesFranquiciaDB, UsuarioDB, TarifaBaseDB, TarifaPeriodoDB, ReservaDB, TemporalReservaDB, EmpleadoFranquiciaDB}
+import shared.dbclasses.{Coche, Franquicia, Reserva}
+import aux.Methods.userToName
+import play.api.data.Form
+import play.api.data.Forms._
+import java.sql.{Timestamp, Date}
+import scala.language.implicitConversions
+import scala.language.postfixOps
+import scala.concurrent.duration._
+import scala.util.{Success, Failure}
+
+class GestionarFranquicia @Inject() (empleadoFranquiciaDB: EmpleadoFranquiciaDB, cocheDB: CocheDB, cocheFranquiciaDB: CochesFranquiciaDB) extends Controller with AuthElement with AuthConfigImpl {
+
+  def validateCreateCar(matricula: String, marca: String, modelo: String, gama: String, foto: String): Option[Coche] = {
+    // Check matricula not used?
+    Some(Coche(
+      matricula,
+      marca,
+      modelo,
+      gama,
+      foto,
+      Disponible,
+      -1
+    ))
+  }
+
+  def createCarForm = Form {
+    mapping(
+      "matricula" -> nonEmptyText,
+      "marca" -> nonEmptyText,
+      "modelo" -> nonEmptyText,
+      "gama" -> nonEmptyText,
+      "foto" -> ignored[String]("")
+    )(validateCreateCar)(_.map(r => (r.matricula, r.marca, r.modelo, r.gama, ""))).verifying("Invalid car", result => result.isDefined)
+  }
+
+  def postCreateCar = AsyncStack(AuthorityKey -> Empleado) {
+    implicit request =>
+    request.body.asMultipartFormData match {
+      case Some(body) => {
+        createCarForm.bindFromRequest.fold(
+          formWithErrors => Future.successful(BadRequest("Error")),
+          reservaOpt => (reservaOpt, body.file("foto")) match {
+            case (Some(coche), Some(foto)) => {
+              val fname = s"${coche.matricula}-${coche.gama}_${coche.modelo}.jpg"
+
+              val imageFile = new java.io.File(s"public/cars/$fname")
+              foto.ref.moveTo(imageFile)
+              val newcoche = coche.copy(foto = fname)
+              empleadoFranquiciaDB.getFranquicia(loggedIn.dni) flatMap {
+                case Some(fid) => (cocheDB.insert(newcoche) zip cocheFranquiciaDB.insert(newcoche.matricula, fid)) map {
+                  case (Success(car), n) if n > 0 => Ok(newcoche.matricula)
+                  case (Success(car), n) if n <= 0 => BadRequest("Remove car")
+                  case (Failure(_), _) => BadRequest("Some error")
+                }
+                case None => Future.successful(BadRequest("Not logged"))
+              }
+            }
+            case _ => Future.successful(BadRequest("Something went wrong"))
+          }
+        )
+      }
+      case None => Future.successful(BadRequest(""))
+    }
+  }
+
+  def getGestion = AsyncStack(AuthorityKey -> Empleado) { implicit request =>
+    empleadoFranquiciaDB.getFranquicia(loggedIn.dni) map {
+      case Some(fid) => Ok(views.html.gestion(fid, loggedIn.nombre, loggedIn.tipo))
+      case None => BadRequest("Really bad >.>")
+    }
+  }
+
+}
diff --git a/server/app/controllers/api/v1/CocheApplication.scala b/server/app/controllers/api/v1/CocheApplication.scala
index 70eb2c9..aa5d808 100644
--- a/server/app/controllers/api/v1/CocheApplication.scala
+++ b/server/app/controllers/api/v1/CocheApplication.scala
@@ -31,6 +31,10 @@ class CocheApplication @Inject() (cocheDB: CocheDB, usuarioDB: UsuarioDB) extend
     cocheDB.list().map(c => Ok(toJson(c)))
   }
 
+  def getMatriculas(onlyDisp: Boolean) = Action.async { _ =>
+    cocheDB.listIDs(onlyDisp).map(c => Ok(toJson(c)))
+  }
+
   def getCoche(matr: String) = Action.async { _ =>
     cocheDB.getCoche(matr) map {
       case Some(coche) => Ok(toJson(coche))
diff --git a/server/app/tables/CocheTable.scala b/server/app/tables/CocheTable.scala
index 416d601..f149ff9 100644
--- a/server/app/tables/CocheTable.scala
+++ b/server/app/tables/CocheTable.scala
@@ -18,15 +18,16 @@ import scala.util.{Try, Success}
 class CocheDB @Inject() (protected val dbConfigProvider: DatabaseConfigProvider) extends DBComponent with HasDatabaseConfigProvider[JdbcProfile] {
   import driver.api._
 
-  class Coches(tag: Tag) extends Table[Coche](tag, "COCHE") {
-    implicit val estadoColumnType = MappedColumnType.base[Estado, String](x => x, y => y)
-    implicit val gamaColumnType = MappedColumnType.base[Gama, String](x => x, y => y)
+  implicit val estadoColumnType = MappedColumnType.base[Estado, String](x => x, y => y)
+  implicit val gamaColumnType = MappedColumnType.base[Gama, String](x => x, y => y)
 
+  class Coches(tag: Tag) extends Table[Coche](tag, "COCHE") {
     def matricula = column[String]("MATRICULA", O.PrimaryKey)
     def marca = column[String]("MARCA")
     def modelo = column[String]("MODELO")
     def gama = column[Gama]("GAMA")
-    def foto = column[Blob]("FOTO")
+    // def foto = column[Blob]("FOTO")
+    def foto = column[String]("FOTO")
     def estado = column[Estado]("ESTADO")
     def reserva = column[Int]("RESERVA")
 
@@ -46,6 +47,12 @@ class CocheDB @Inject() (protected val dbConfigProvider: DatabaseConfigProvider)
     db.run(coches.result)
   }
 
+  def listIDs(onlyDisp: Boolean): Future[Seq[String]] = {
+    val st: Estado = Disponible
+    val action = if (onlyDisp) coches.filter(_.estado === st) else coches
+    db.run(action.map(_.matricula).result)
+  }
+
   def insert(coche: Coche): Future[Try[Coche]] = {
     val action = coches += coche
     db.run(action.asTry).map(_ => Success(coche))
diff --git a/server/app/tables/EmpleadoFranquiciaTable.scala b/server/app/tables/EmpleadoFranquiciaTable.scala
new file mode 100644
index 0000000..a65a749
--- /dev/null
+++ b/server/app/tables/EmpleadoFranquiciaTable.scala
@@ -0,0 +1,42 @@
+package tables
+
+import javax.inject.{Inject, Singleton}
+import play.api.db.slick.{DatabaseConfigProvider, HasDatabaseConfigProvider}
+import slick.driver.JdbcProfile
+import play.api.libs.concurrent.Execution.Implicits.defaultContext
+import scala.concurrent._
+import scala.concurrent.duration._
+import scala.language.postfixOps
+import shared.dbclasses.Franquicia
+import shared.dbclasses.Coche
+import scala.util.{Try, Success, Failure}
+
+@Singleton()
+class EmpleadoFranquiciaDB @Inject() (protected val dbConfigProvider: DatabaseConfigProvider) extends DBComponent with HasDatabaseConfigProvider[JdbcProfile] {
+  import driver.api._
+
+  case class EmpleadoFranquicia(usuario: String, franquicia: Int)
+
+  class EmpleadosFranquicias(tag: Tag) extends Table[EmpleadoFranquicia](tag, "EMPLEADOFRANQUICIA") {
+    def usuario = column[String]("USUARIO", O.PrimaryKey)
+    def franquicia = column[Int]("FRANQUICIA")
+
+    def * = (
+      usuario,
+      franquicia) <> ((EmpleadoFranquicia.apply _).tupled, EmpleadoFranquicia.unapply _)
+  }
+
+  private val empleadosfranquicias = TableQuery[EmpleadosFranquicias]
+
+  def getFranquicia(user: String): Future[Option[Int]] = {
+    val action = empleadosfranquicias
+      .filter(x => x.usuario === user)
+      .map(_.franquicia)
+    db.run(action.result) map { _.headOption }
+  }
+
+  def insert(user: String, franq: Int): Future[Int] = {
+    val action = empleadosfranquicias.insertOrUpdate(EmpleadoFranquicia(user, franq))
+    db.run(action)
+  }
+}
diff --git a/server/app/views/gestion.scala.html b/server/app/views/gestion.scala.html
new file mode 100644
index 0000000..c46764c
--- /dev/null
+++ b/server/app/views/gestion.scala.html
@@ -0,0 +1,6 @@
+@(fid: Int, user: String, tipo: shared.classes.TipoUsuario)
+@main("Gestion de franquicia", user, tipo) {
+<script>
+    example.Gestion().main(@fid)
+</script>
+}
diff --git a/server/app/views/login.scala.html b/server/app/views/login.scala.html
index 4785724..436a047 100644
--- a/server/app/views/login.scala.html
+++ b/server/app/views/login.scala.html
@@ -12,44 +12,3 @@
     }
 </script>
 }
-<!-- <!DOCTYPE html> -->
-
-<!-- <html> -->
-<!--     <head> -->
-<!--         <title>Login</title> -->
-<!--         <link rel="stylesheet" media="screen" href="@routes.Assets.versioned("stylesheets/main.css")"> -->
-<!--         <link rel="shortcut icon" type="image/png" href="@routes.Assets.versioned("images/favicon.png")"> -->
-<!--         <script src="@routes.Assets.versioned("javascripts/jquery-1.7.1.min.js")" type="text/javascript"></script> -->
-<!--     </head> -->
-<!--     <body> -->
-
-<!--         @helper.form(action = routes.LoginLogoutApplication.authenticate) { -->
-
-<!--         <h1>Sign in</h1> -->
-
-<!--         @form.globalError.map { error => -->
-<!--         <p class="error"> -->
-<!--             @error.message -->
-<!--         </p> -->
-<!--         } -->
-
-<!--         @flash.get("success").map { message => -->
-<!--         <p class="success"> -->
-<!--             @message -->
-<!--         </p> -->
-<!--         } -->
-
-<!--         <p> -->
-<!--             <input type="text" name="dni" placeholder="DNI" id="dni"> -->
-<!--         </p> -->
-<!--         <p> -->
-<!--             <input type="password" name="password" id="password" placeholder="Password"> -->
-<!--         </p> -->
-<!--         <p> -->
-<!--             <button type="submit" id="loginbutton">Login</button> -->
-<!--         </p> -->
-
-<!--         } -->
-
-<!--     </body> -->
-<!-- </html> -->
diff --git a/server/app/views/main.scala.html b/server/app/views/main.scala.html
index 3603de2..2daf18d 100644
--- a/server/app/views/main.scala.html
+++ b/server/app/views/main.scala.html
@@ -1,5 +1,6 @@
 @(title: String,
 user: String = "",
+tipo: shared.classes.TipoUsuario = shared.classes.TipoUsuario.Anonimo,
 header: Html = Html(""),
 content: Html = Html(""))(javascripts: Html = Html(""))
 <!DOCTYPE html>
@@ -31,6 +32,7 @@ content: Html = Html(""))(javascripts: Html = Html(""))
 
         <link rel="stylesheet" media="screen" href="@routes.Assets.versioned("stylesheets/main.css")">
         <link rel="stylesheet" media="screen" href="@routes.Assets.versioned("stylesheets/style.css")">
+        <link rel="stylesheet" media="screen" href="@routes.Assets.versioned("stylesheets/alert.css")">
         @header
 
     </head>
@@ -38,6 +40,12 @@ content: Html = Html(""))(javascripts: Html = Html(""))
 
         <div id="header"></div>
 
+        <div class="container" style="position: absolute; top: 58px; right: 0px; z-index: 1060; width: auto;">
+            <div class="row">
+                <div class="alert-group">
+                </div>
+            </div>
+        </div>
 
         <div class="container-fluid wrapper">
             <div class="row">
@@ -71,7 +79,7 @@ content: Html = Html(""))(javascripts: Html = Html(""))
         <script src="@routes.Assets.versioned("lib/bootstrap-datepicker/js/bootstrap-datepicker.min.js")" type="text/javascript"></script>
         <script src="@routes.Assets.versioned("lib/bootstrap-datepicker/locales/bootstrap-datepicker.es.min.js")" type="text/javascript"></script>
         <script>
-            example.Header().main("@user");
+            example.Header().main("@user", "@tipo");
         </script>
         @javascripts
 
diff --git a/server/app/views/newmain.scala.html b/server/app/views/newmain.scala.html
index 0af73ed..ff492fe 100644
--- a/server/app/views/newmain.scala.html
+++ b/server/app/views/newmain.scala.html
@@ -1,5 +1,5 @@
-@(user: String = "")
-@main("Shut up and rent my car", user) {
+@(user: String = "", tipo: shared.classes.TipoUsuario)
+@main("Shut up and rent my car", user, tipo) {
 <script>
     example.NewMain().main()
 </script>
diff --git a/server/app/views/showfranquicia.scala.html b/server/app/views/showfranquicia.scala.html
index 43cec86..235ac85 100644
--- a/server/app/views/showfranquicia.scala.html
+++ b/server/app/views/showfranquicia.scala.html
@@ -1,5 +1,9 @@
-@(id: Int, calle: String, numero: Int, pais: String, comunidad: String, poblacion: String, codigopostal: Int, user: String = "")
-@main("Coches", user) {
+@(id: Int, calle: String, numero: Int, pais: String, comunidad: String, poblacion: String, codigopostal: Int, user: String = "", tipo: shared.classes.TipoUsuario = shared.classes.TipoUsuario.Anonimo)
+@main("Coches", user, tipo) {
+
+<link rel="stylesheet" media="screen" href="@routes.Assets.versioned("stylesheets/login_normalize.css")">
+<link rel="stylesheet" media="screen" href="@routes.Assets.versioned("stylesheets/login_style.css")">
+
 <script>
     example.ShowCochesFranquicia().main(@id, "@calle", @numero, "@pais", "@comunidad", "@poblacion", @codigopostal)
 </script>
diff --git a/server/conf/evolutions/default/1.sql b/server/conf/evolutions/default/1.sql
index 91f0cae..149224a 100644
--- a/server/conf/evolutions/default/1.sql
+++ b/server/conf/evolutions/default/1.sql
@@ -2,10 +2,14 @@
 
 -- Create tables
 
-create table `COCHE` ("MATRICULA" VARCHAR NOT NULL PRIMARY KEY, "MARCA" VARCHAR NOT NULL, "MODELO" VARCHAR NOT NULL, "GAMA" VARCHAR NOT NULL, "FOTO" BLOB NOT NULL, "ESTADO" VARCHAR NOT NULL, "RESERVA" INT NOT NULL);
+create table `COCHE` ("MATRICULA" VARCHAR NOT NULL PRIMARY KEY, "MARCA" VARCHAR NOT NULL, "MODELO" VARCHAR NOT NULL, "GAMA" VARCHAR NOT NULL, "FOTO" VARCHAR NOT NULL, "ESTADO" VARCHAR NOT NULL, "RESERVA" INT NOT NULL);
+
+-- create table `COCHE` ("MATRICULA" VARCHAR NOT NULL PRIMARY KEY, "MARCA" VARCHAR NOT NULL, "MODELO" VARCHAR NOT NULL, "GAMA" VARCHAR NOT NULL, "FOTO" BLOB NOT NULL, "ESTADO" VARCHAR NOT NULL, "RESERVA" INT NOT NULL);
 
 create table `USUARIO` ("DNI" VARCHAR NOT NULL PRIMARY KEY, "NOMBRE" VARCHAR NOT NULL, "APELLIDOS" VARCHAR NOT NULL, "TIPO" VARCHAR NOT NULL, "EMAIL" VARCHAR NOT NULL, "PASS" VARCHAR NOT NULL);
 
+create table `EMPLEADOFRANQUICIA` ("USUARIO" VARCHAR NOT NULL PRIMARY KEY, "FRANQUICIA" INT NOT NULL);
+
 create table `FRANQUICIA` ("ID" INT GENERATED BY DEFAULT AS IDENTITY(START WITH 1) NOT NULL PRIMARY KEY, "CALLE" VARCHAR NOT NULL, "NUMERO" INT NOT NULL, "CODIGOPOSTAL" INT NOT NULL, "POBLACION" VARCHAR NOT NULL, "COMUNIDAD" VARCHAR NOT NULL, "PAIS" VARCHAR NOT NULL);
 
 create table `COCHESFRANQUICIA` ("ID" INT GENERATED BY DEFAULT AS IDENTITY(START WITH 1) NOT NULL PRIMARY KEY, "FRANQUICIA" INT NOT NULL, "COCHE" VARCHAR NOT NULL);
@@ -36,6 +40,7 @@ drop table `COCHE`;
 drop table `USUARIO`;
 drop table `FRANQUICIA`;
 drop table `COCHESFRANQUICIA`;
+drop table `EMPLEADOFRANQUICIA`;
 drop table `RESERVA`;
 drop table `FACTURA`;
 drop table `PAGO`;
diff --git a/server/conf/evolutions/default/2.sql b/server/conf/evolutions/default/2.sql
index 8a0dd7f..d662289 100644
--- a/server/conf/evolutions/default/2.sql
+++ b/server/conf/evolutions/default/2.sql
@@ -1,21 +1,50 @@
 # --- !Ups
 
 -- TEST DATA
--- insert into COCHE values ('1778BGN', 'Citroen', 'Saxo', 'alta', FILE_READ('../../../../public/images/saxo.jpg'), 'reservado', -1);
--- insert into COCHE values ('8273CNP', 'Ford', 'Focus', 'media', FILE_READ('../../../../public/images/focus.jpg'), 'disponible', -1);
 
-insert into COCHE values ('1778BGN', 'Citroen', 'Saxo', 'alta', FILE_READ('public/images/saxo.jpg'), 'reservado', -1);
-insert into COCHE values ('8273CNP', 'Ford', 'Focus', 'media', FILE_READ('public/images/focus.jpg'), 'disponible', -1);
+insert into COCHE values ('8273CNP', 'Citroen', 'Saxo', 'alta', 'saxo.jpg', 'reservado', -1);
+insert into COCHE values ('9889DBB', 'Ford', 'Focus', 'media', 'focus.jpg', 'disponible', -1);
+insert into COCHE values ('6776XDD', 'Ferrari', 'F80', 'alta', 'ferraryf80.jpg', 'disponible', -1);
+insert into COCHE values ('6969HDP', 'Mazda', '3', 'media', 'mazda3.jpg', 'reservado', -1);
+insert into COCHE values ('0600T', 'Seat', '600', 'baja', '600.jpg', 'disponible', -1);
+insert into COCHE values ('0911WTF', 'Porshe', '911', 'alta', 'porsche911.jpg', 'disponible', -1);
+insert into COCHE values ('0000A', 'Tronco', 'Movil', 'baja', 'troncomovil.jpg', 'disponible', -1);
+insert into COCHE values ('BATMOVIL', 'Batmovil', 'Batman & Robin Edition', 'alta', 'batmovil.jpg', 'disponible', -1);
+insert into COCHE values ('0404CCC', 'Citroen', 'C4', 'media', 'c4.jpg', 'reservado', -1);
+insert into COCHE values ('7777HMR', 'Hummer', 'H2', 'alta', 'hummer.jpg', 'disponible', -1);
+
+
+insert into USUARIO values ('admin', 'Rock', 'Neurotiko', 'admin', 'rockneurotiko@gmail.com', '1234');
+
+insert into USUARIO values ('empleado1', 'MyEmployee1', 'Yeah1', 'empleado', 'employee1@gmail.com', '1234');
+insert into USUARIO values ('empleado2', 'MyEmployee2', 'Yeah2', 'empleado', 'employee2@gmail.com', '1234');
+insert into USUARIO values ('empleado3', 'MyEmployee3', 'Yeah3', 'empleado', 'employee3@gmail.com', '1234');
 
-insert into USUARIO values ('01211255L', 'Rock', 'Neurotiko', 'admin', 'rockneurotiko@gmail.com', '1234');
 insert into USUARIO values ('W12345', 'IS2Company', 'Yeah', 'empresa', 'ceo@company.com', '12345');
-insert into USUARIO values ('111', 'Usuario', 'Awesome', 'usuario', 'my@gmail.com', '1234');
+insert into USUARIO values ('111', 'Usuario', 'Awesome', 'normal', 'my@gmail.com', '1234');
+
+
+insert into FRANQUICIA values (1, 'Barajas T4', 23, 28080, 'Madrid', 'Madrid', 'España');
+insert into FRANQUICIA values (2, 'Serrano', 1, 42230, 'Zaragoza', 'Zaragoza', 'España');
+insert into FRANQUICIA values (3, 'Facultad de Informatica', 1337, 1903, 'Campus Montegancedo', 'Madrid', 'España');
 
-insert into FRANQUICIA values (1, 'C/That', 23, 28080, 'Madrid', 'Madrid', 'España');
-insert into FRANQUICIA values (2, 'C/Other', 1, 42230, 'Zaragoza', 'Zaragoza', 'España');
 
-insert into COCHESFRANQUICIA ("FRANQUICIA", "COCHE") values (1, '1778BGN');
 insert into COCHESFRANQUICIA ("FRANQUICIA", "COCHE") values (1, '8273CNP');
+insert into COCHESFRANQUICIA ("FRANQUICIA", "COCHE") values (1, '9889DBB');
+insert into COCHESFRANQUICIA ("FRANQUICIA", "COCHE") values (1, '6776XDD');
+insert into COCHESFRANQUICIA ("FRANQUICIA", "COCHE") values (1, '0911WTF');
+insert into COCHESFRANQUICIA ("FRANQUICIA", "COCHE") values (2, '0600T');
+insert into COCHESFRANQUICIA ("FRANQUICIA", "COCHE") values (2, '0000A');
+insert into COCHESFRANQUICIA ("FRANQUICIA", "COCHE") values (3, 'BATMOVIL');
+insert into COCHESFRANQUICIA ("FRANQUICIA", "COCHE") values (3, '777HMR');
+insert into COCHESFRANQUICIA ("FRANQUICIA", "COCHE") values (3, '6969HDP');
+insert into COCHESFRANQUICIA ("FRANQUICIA", "COCHE") values (3, '0404CCC');
+
+
+insert into EMPLEADOFRANQUICIA values ('empleado1', 1);
+insert into EMPLEADOFRANQUICIA values ('empleado2', 2);
+insert into EMPLEADOFRANQUICIA values ('empleado3', 3);
+
 
 insert into RESERVA ("IDUSUARIO", "IDRESERVANTE", "IDCOCHE", "TARJETA", "CADUCIDADTARJETA", "TIPOTARJETA", "FECHARESERVA", "FECHAINICIO", "TIPORESERVA", "PRECIO") values ('01211255L', 'W12345', '1778BGN', '5644687687', '2018-03-01', 'mastercard', {ts '2015-11-09 09:32:03.69'}, '2015-11-25', 'dia', 123.2);
 
@@ -45,6 +74,7 @@ delete from COCHE;
 delete from USUARIO;
 delete from FRANQUICIA;
 delete from COCHESFRANQUICIA;
+delete from EMPLEADOFRANQUICIA;
 delete from RESERVA;
 delete from FACTURA;
 delete from PAGO;
diff --git a/server/conf/routes b/server/conf/routes
index 51c7a8f..882da51 100644
--- a/server/conf/routes
+++ b/server/conf/routes
@@ -36,10 +36,14 @@ GET /profile controllers.AwesomeLoggedApplication.profile
 
 GET /reserva/:id controllers.AwesomeLoggedApplication.reserva(id: Int)
 
+GET /gestionar controllers.GestionarFranquicia.getGestion
+POST /gestionar/createCar controllers.GestionarFranquicia.postCreateCar
+
 ## API V1
 
 # Coches
 GET      /api/v1/coches               controllers.api.v1.CocheApplication.get
+GET      /api/v1/coches/matriculas    controllers.api.v1.CocheApplication.getMatriculas(disponible: Boolean ?= false)
 POST      /api/v1/coches               controllers.api.v1.CocheApplication.post
 GET      /api/v1/coches/:matricula      controllers.api.v1.CocheApplication.getCoche(matricula: String)
 PUT       /api/v1/coches/:matricula   controllers.api.v1.CocheApplication.changeState(matricula: String)
diff --git a/server/test/db/CocheDBSpec.scala b/server/test/db/CocheDBSpec.scala
index 5af3cf4..52fe09c 100644
--- a/server/test/db/CocheDBSpec.scala
+++ b/server/test/db/CocheDBSpec.scala
@@ -20,7 +20,7 @@ import Estado._
 import aux.Implicits._
 import org.specs2.mutable.Specification
 import java.util.Base64
-import javax.sql.rowset.serial.SerialBlob
+// import javax.sql.rowset.serial.SerialBlob
 
 class CocheSpec  extends Specification {
   "Car DatabaseConfigProvider" should {
@@ -30,28 +30,32 @@ class CocheSpec  extends Specification {
       app2CocheDB(app)
     }
 
-    val blob = new SerialBlob(Base64.getDecoder.decode("UFVUTyBDQU5P"))
+    def contains[T](l1: Seq[T], l2: Seq[T]) = {
+      l2 foreach { c => l1 should contain (c) }
+    }
+
+    // val blob = new SerialBlob(Base64.getDecoder.decode("UFVUTyBDQU5P"))
 
-    def removeBlob(c: Coche) = c.copy(foto = blob)
+    // def removeBlob(c: Coche) = c.copy(foto = blob)
 
-    val defaultCars = Seq(
-      Coche("1778BGN", "Citroen", "Saxo", Alta, blob, Reservado, -1),
-      Coche("8273CNP", "Ford", "Focus", Media, blob, Disponible, -1))
+    val someCars = List(Coche("8273CNP", "Citroen", "Saxo",
+      Alta, "saxo.jpg", Reservado, -1),
+      Coche("9889DBB", "Ford", "Focus", Media, "focus.jpg", Disponible, -1))
 
     "default cars as expetec" in new WithApplication {
       val coches = Await.result(cocheDB.list(), 500 millis)
 
-      (coches map removeBlob) must_== defaultCars
+      contains(coches, someCars)
     }
 
     "insert work as expetec" in new WithApplication {
-      val testCar = Coche("123", "aaa", "bbb", Alta, blob, Disponible, -1)
+      val testCar = Coche("123", "aaa", "bbb", Alta, "test.jpg", Disponible, -1)
 
       Await.result(cocheDB.insert(testCar), 500 millis)
 
       val coches = Await.result(cocheDB.list(), 500 millis)
 
-      (coches map removeBlob) must_== (defaultCars :+ testCar)
+      contains(coches, someCars :+ testCar)
     }
 
     "get work as expetec" in new WithApplication {
@@ -59,9 +63,9 @@ class CocheSpec  extends Specification {
 
       cochenone must_== None
 
-      val cochesome = Await.result(cocheDB.getCoche("1778BGN"), 500 millis)
+      val cochesome = Await.result(cocheDB.getCoche("8273CNP"), 500 millis)
 
-      (cochesome map removeBlob) must_== Some(Coche("1778BGN", "Citroen", "Saxo", Alta, blob, Reservado, -1))
+      cochesome must_== Some(Coche("8273CNP", "Citroen", "Saxo", Alta, "saxo.jpg", Reservado, -1))
     }
 
     "insert and get work as expetec" in new WithApplication {
@@ -69,13 +73,13 @@ class CocheSpec  extends Specification {
 
       coche must_== None
 
-      val testCar = Coche("123", "aaa", "bbb", Alta, blob, Disponible, -1)
+      val testCar = Coche("123", "aaa", "bbb", Alta, "test.jpg", Disponible, -1)
 
       Await.result(cocheDB.insert(testCar), 500 millis)
 
       val coche2 = Await.result(cocheDB.getCoche("123"), 500 millis)
 
-      (coche2 map removeBlob) must_== Some(testCar)
+      coche2 must_== Some(testCar)
     }
 
   }
diff --git a/server/test/db/UserDBSpec.scala b/server/test/db/UserDBSpec.scala
index 10b0c34..0a227b5 100644
--- a/server/test/db/UserDBSpec.scala
+++ b/server/test/db/UserDBSpec.scala
@@ -21,7 +21,6 @@ import Estado._
 import aux.Implicits._
 import org.specs2.mutable.Specification
 import java.util.Base64
-import javax.sql.rowset.serial.SerialBlob
 
 class UserSpec extends Specification {
   "User DatabaseConfigProvider" should {
@@ -31,15 +30,19 @@ class UserSpec extends Specification {
       app2UsuarioDB(app)
     }
 
-    val defaultUsers = Seq(
-      Usuario("01211255L", "Rock", "Neurotiko", Admin, "rockneurotiko@gmail.com", "1234"),
+    def contains[T](l1: Seq[T], l2: Seq[T]) = {
+      l2 foreach { c => l1 should contain (c) }
+    }
+
+    val someUsers = List(
+      Usuario("admin", "Rock", "Neurotiko", Admin, "rockneurotiko@gmail.com", "1234"),
       Usuario("W12345", "IS2Company", "Yeah", Empresa, "ceo@company.com", "12345"),
       Usuario("111", "Usuario", "Awesome", Normal, "my@gmail.com", "1234"))
 
     "default users as expetec" in new WithApplication {
       val users = Await.result(userDB.list(), 500 millis)
 
-      users must_== defaultUsers
+      contains(users, someUsers)
     }
 
     "insert work as expetec" in new WithApplication {
@@ -49,7 +52,7 @@ class UserSpec extends Specification {
 
       val users = Await.result(userDB.list(), 500 millis)
 
-      users must_== (defaultUsers :+ testUser)
+      contains(users, someUsers :+ testUser)
     }
 
     "get work as expetec" in new WithApplication {
@@ -65,9 +68,9 @@ class UserSpec extends Specification {
       val testUser = Usuario("29437B","Pene","Castanias",Normal,"pene@toduro.org","1234")
       Await.result(userDB.insert(testUser), 500 millis)
 
-      val users = Await.result(userDB.list(), 500 millis)
+      val userRes = Await.result(userDB.getUser("29437B"), 500 millis)
 
-      users must_== (defaultUsers :+ testUser)
+      userRes must_== Some(testUser)
     }
 
     "Authenticate with valid credentials should work as expetec" in new WithApplication {
diff --git a/server/test/db/extraDBSpec.scala b/server/test/db/extraDBSpec.scala
index 0b58c14..8bea18d 100644
--- a/server/test/db/extraDBSpec.scala
+++ b/server/test/db/extraDBSpec.scala
@@ -20,7 +20,6 @@ import Estado._
 import aux.Implicits._
 import org.specs2.mutable.Specification
 import java.util.Base64
-import javax.sql.rowset.serial.SerialBlob
 
 class ExtrasSpec extends Specification {
 
diff --git a/server/test/db/facturaDBSpec.scala b/server/test/db/facturaDBSpec.scala
index 58200cb..696d973 100644
--- a/server/test/db/facturaDBSpec.scala
+++ b/server/test/db/facturaDBSpec.scala
@@ -18,7 +18,6 @@ import shared.dbclasses.Factura
 import aux.Implicits._
 import org.specs2.mutable.Specification
 import java.util.Base64
-import javax.sql.rowset.serial.SerialBlob
 import java.sql.Timestamp
 import java.text.SimpleDateFormat
 
diff --git a/server/test/db/franquDBSpec.scala b/server/test/db/franquDBSpec.scala
index 965d2e1..0e3acac 100644
--- a/server/test/db/franquDBSpec.scala
+++ b/server/test/db/franquDBSpec.scala
@@ -22,7 +22,6 @@ import Estado._
 import aux.Implicits._
 import org.specs2.mutable.Specification
 import java.util.Base64
-import javax.sql.rowset.serial.SerialBlob
 import java.sql.Timestamp
 import java.text.SimpleDateFormat
 
@@ -36,58 +35,60 @@ class FranqSpec extends Specification {
 
     val format = new SimpleDateFormat("yyyy-MM-dd'T'HH:mm:ss.SS'Z'")
 
-    val defaultFranq = Seq(Franquicia(Some(1), "C/That", 23, 28080,
+    val defaultFranq = Seq(Franquicia(Some(1), "Barajas T4", 23, 28080,
       "Madrid", "Madrid", "España"),
-    Franquicia(Some(2), "C/Other", 1, 42230, "Zaragoza", "Zaragoza", "España"))
+      Franquicia(Some(2), "Serrano", 1, 42230, "Zaragoza", "Zaragoza", "España"),
+      Franquicia(Some(3), "Facultad de Informatica", 1337, 1903, "Campus Montegancedo", "Madrid", "España"))
 
-    "default factures as expetec" in new WithApplication {
+    "default franqs as expetec" in new WithApplication {
       val factures = Await.result(franqDB.list(), 500 millis)
 
       factures must_== defaultFranq
     }
 
     "insert work as expetec" in new WithApplication {
-      val testFranq = Franquicia(Some(3), "C/La Piruleta", 23, 28080,
+      val testFranq = Franquicia(None, "C/La Piruleta", 23, 28080,
         "Potorrocity", "Wat?", "Cipotelandia")
 
       Await.result(franqDB.insert(testFranq), 500 millis)
 
       val franq = Await.result(franqDB.list(), 500 millis)
 
-      franq must_== (defaultFranq :+ testFranq)
+      franq must_== (defaultFranq :+ testFranq.copy(id=Some(4)))
     }
 
     "getFranquicia work as expetec" in new WithApplication {
        val franq = Await.result(franqDB.getFranquicia(1), 500 millis)
 
-      franq must_== Some(Franquicia(Some(1), "C/That", 23, 28080,
+      franq must_== Some(Franquicia(Some(1), "Barajas T4", 23, 28080,
         "Madrid", "Madrid", "España"))
     }
 
     "insert and get work expetec" in new WithApplication {
-      val franq = Await.result(franqDB.getFranquicia(3), 500 millis)
+      val franq = Await.result(franqDB.getFranquicia(4), 500 millis)
       franq must_== None
 
-      val testFranq = Franquicia(Some(3), "C/La Piruleta", 23, 28080,
+      val testFranq = Franquicia(None, "C/La Piruleta", 23, 28080,
         "Potorrocity", "Wat?", "Cipotelandia")
 
       Await.result(franqDB.insert(testFranq), 500 millis)
 
       val franqs = Await.result(franqDB.list(), 500 millis)
 
-      franqs must_== (defaultFranq :+ testFranq)
+      franqs must_== (defaultFranq :+ testFranq.copy(id=Some(4)))
     }
 
     "getCoches work as expetec" in new WithApplication {
       val users = Await.result(franqDB.getCoches(1), 500 millis)
 
-      val blob = new SerialBlob(Base64.getDecoder.decode("UFVUTyBDQU5P"))
+      // val blob = new SerialBlob(Base64.getDecoder.decode("UFVUTyBDQU5P"))
 
-      def removeBlob(c: Coche) = c.copy(foto = blob)
+      // def removeBlob(c: Coche) = c.copy(foto = blob)
 
-      (users map removeBlob) must_== Vector(Coche("1778BGN", "Citroen", "Saxo",
-        Alta, blob, Reservado, -1),
-      Coche("8273CNP", "Ford", "Focus", Media, blob, Disponible, -1))
+      val expetec = List(Coche("8273CNP", "Citroen", "Saxo",
+        Alta, "saxo.jpg", Reservado, -1),
+        Coche("9889DBB", "Ford", "Focus", Media, "focus.jpg", Disponible, -1))
+      expetec foreach { c => users should contain (c)}
     }
 
     "getPaises work as expetec" in new WithApplication {
@@ -105,15 +106,15 @@ class FranqSpec extends Specification {
     "getPoblaciones work as expetec" in new WithApplication {
       val poblaciones = Await.result(franqDB.getPoblaciones("España","Madrid"), 500 millis)
 
-      poblaciones must_== Seq("Madrid")
+      poblaciones must_== Seq("Madrid", "Campus Montegancedo")
     }
 
     "listWithFilter work as expetec" in new WithApplication {
       val franqis =  Await.result(franqDB.listWithFilter("España","Madrid","Madrid"),
         500 millis)
 
-      franqis must_== Seq(Franquicia(Some(1), "C/That", 23, 28080,
-      "Madrid", "Madrid", "España"))
+      franqis must_== Seq(Franquicia(Some(1), "Barajas T4", 23, 28080,
+        "Madrid", "Madrid", "España"))
     }
   }
 }
diff --git a/server/test/integration/IntegratioSpec.scala b/server/test/integration/IntegratioSpec.scala
index 65702d9..a16d99b 100644
--- a/server/test/integration/IntegratioSpec.scala
+++ b/server/test/integration/IntegratioSpec.scala
@@ -15,7 +15,7 @@ class IntegrationSpec extends Specification {
       val port = 3336
       running(TestServer(port), HTMLUNIT) { browser =>
         browser.goTo("http://localhost:"+port+"/api/v1/coches")
-        browser.pageSource must contain("1778BGN")
+        browser.pageSource must contain("8273CNP")
       }
       true must equalTo(true)
     }
diff --git a/server/test/specs/CochesApplicationSpec.scala b/server/test/specs/CochesApplicationSpec.scala
index 7034808..7681bb0 100644
--- a/server/test/specs/CochesApplicationSpec.scala
+++ b/server/test/specs/CochesApplicationSpec.scala
@@ -3,6 +3,7 @@ package test.specs
 import play.api.test.FakeRequest
 import play.api.test.PlaySpecification
 import play.api.test.WithApplication
+import play.api.libs.json._
 import play.api.libs.json.Json
 import play.api.test.FakeHeaders
 import play.api.libs.concurrent.Execution.Implicits.defaultContext
@@ -22,8 +23,9 @@ import aux.Implicits._
 class CochesApplicationSpec extends PlaySpecification {
 
   def LoginAdmin(): Cookie = {
-    val result2 = route(FakeRequest(POST, "/login", headers=FakeHeaders(Seq(("Content-Type" -> "application/x-www-form-urlencoded"))), body="dni=01211255L&password=1234")).get
-    val cookie = Await.result(result2, 2 seconds).header.headers("Set-Cookie")
+    val result = route(FakeRequest(POST, "/login", headers=FakeHeaders(Seq(("Content-Type" -> "application/x-www-form-urlencoded"))), body="dni=admin&password=1234")).get
+    val result2 = Await.result(result, 2 seconds)
+    val cookie = result2.header.headers("Set-Cookie")
     Cookies.decodeSetCookieHeader(cookie)(1)
   }
 
@@ -41,7 +43,7 @@ class CochesApplicationSpec extends PlaySpecification {
         "marca" -> "Citroen",
         "modelo" -> "Saxo",
         "gama" -> "alta",
-        "foto" -> "UFVUTyBDQU5P",
+        "foto" -> "saxo.jpg",
         "estado" -> "disponible",
         "reserva" -> -1)
       val postRequest = FakeRequest(
@@ -62,7 +64,8 @@ class CochesApplicationSpec extends PlaySpecification {
       status(getPetition) mustEqual OK
       contentType(getPetition) must beSome.which(_ == "application/json")
 
-      val json = Json.parse(contentAsString(getPetition))(2) // Take the second
+      val parsed = Json.parse(contentAsString(getPetition))
+      val json = parsed(parsed.as[JsArray].value.size - 1)
 
       val matricula = (json \ "matricula").as[String]
       val marca = (json \ "marca").as[String]
diff --git a/shared/src/main/scala/classes/TipoUsuario.scala b/shared/src/main/scala/classes/TipoUsuario.scala
index 6c4c736..7c649b0 100644
--- a/shared/src/main/scala/classes/TipoUsuario.scala
+++ b/shared/src/main/scala/classes/TipoUsuario.scala
@@ -4,12 +4,14 @@ import scala.language.implicitConversions
 
 sealed abstract class TipoUsuario
 object TipoUsuario {
+  case object Anonimo extends TipoUsuario
   case object Normal extends TipoUsuario
   case object Empresa extends TipoUsuario
   case object Empleado extends TipoUsuario
   case object Admin extends TipoUsuario
 
   implicit def str2TipoUsuario(str: String): TipoUsuario = str.toLowerCase() match {
+    case "anonimo" => Anonimo
     case "normal" => Normal
     case "empresa" => Empresa
     case "empleado" => Empleado
@@ -18,6 +20,7 @@ object TipoUsuario {
   }
 
   implicit def tipousuario2Str(u: TipoUsuario): String = u match {
+    case Anonimo => "anonimo"
     case Normal => "normal"
     case Empresa => "empresa"
     case Empleado => "empleado"
diff --git a/shared/src/main/scala/dbclasses/Coche.scala b/shared/src/main/scala/dbclasses/Coche.scala
index 0af0a69..ab7a0c9 100644
--- a/shared/src/main/scala/dbclasses/Coche.scala
+++ b/shared/src/main/scala/dbclasses/Coche.scala
@@ -8,7 +8,17 @@ case class Coche(
   marca: String,
   modelo: String,
   gama: Gama,
-  foto: Blob,
+  foto: String,
   estado: Estado,
   reserva: Int
 )
+
+// case class Coche(
+//   matricula: String,
+//   marca: String,
+//   modelo: String,
+//   gama: Gama,
+//   foto: Blob,
+//   estado: Estado,
+//   reserva: Int
+// )
