diff --git a/README.md b/README.md
index ed6686b..df4dc78 100644
--- a/README.md
+++ b/README.md
@@ -89,3 +89,8 @@ Los tests estan en el directorio `test`
 http://shippable.com/ (el que usamos)
 https://codeship.com
 https://semaphoreci.com
+
+
+## TODO?
+
+- Use recaptcha? https://github.com/chrisnappin/play-recaptcha/wiki/High-Level-API-%28Play-2.4-and-above%29
diff --git a/accumulated_lines.org b/accumulated_lines.org
index f7c8950..dc145c4 100644
--- a/accumulated_lines.org
+++ b/accumulated_lines.org
@@ -56,3 +56,23 @@ SUM:                            73            410            209           2069
 >>=>>=>>=>>=>>=>>=>>=
 
 
+Date: mar nov 17 15:42:33 CET 2015
+
+http://cloc.sourceforge.net v 1.65  T=0.13 s (652.7 files/s, 30667.9 lines/s)
+-------------------------------------------------------------------------------
+Language                     files          blank        comment           code
+-------------------------------------------------------------------------------
+Scala                           65            432            223           2313
+CSS                              4             58             38            425
+XML                              2              6              5            160
+HTML                            10             33             40            116
+SQL                              2             26              5             62
+YAML                             1              0              0              5
+-------------------------------------------------------------------------------
+SUM:                            84            555            311           3081
+-------------------------------------------------------------------------------
+
+
+>>=>>=>>=>>=>>=>>=>>=
+
+
diff --git a/build.sbt b/build.sbt
index 59aad94..9c1d5e5 100644
--- a/build.sbt
+++ b/build.sbt
@@ -26,6 +26,7 @@ val fontawesome = "org.webjars" % "font-awesome" % "4.3.0-2"
 val slick = "com.typesafe.play" %% "play-slick" % "1.1.1"
 val slickevolutions = "com.typesafe.play" %% "play-slick-evolutions" % "1.1.1"
 val h2 = "com.h2database" % "h2" % "1.4.189"
+val recaptcha = "com.nappin" %% "play-recaptcha" % "1.5"
 
 val play2auth = "jp.t2v" %% "play2-auth" % "0.14.1"
 val play2authsocial = "jp.t2v" %% "play2-auth-social" % "0.14.1" // for social login
@@ -50,12 +51,14 @@ lazy val server = (project in file("server")).
     resolvers += "scalaz-bintray" at "https://dl.bintray.com/scalaz/releases",
     libraryDependencies ++= Seq(
       "com.vmunier" %% "play-scalajs-scripts" % "0.3.0",
-      // "org.webjars" % "jquery" % "2.1.4",
+      webjars,
       "org.webjars.npm" % "jquery" % "2.1.4",
+      "org.webjars" % "bootstrap" % "3.3.5",
+      "org.webjars.npm" % "bootstrap-select" % "1.7.4",
       slick,
       slickevolutions,
       h2,
-      webjars,
+      recaptcha,
       // bootstrap3,
       fontawesome,
       // datepicker,
diff --git a/client/src/main/scala/Header.scala b/client/src/main/scala/Header.scala
new file mode 100644
index 0000000..d011eca
--- /dev/null
+++ b/client/src/main/scala/Header.scala
@@ -0,0 +1,100 @@
+package example
+
+
+// import scalatags.JsDom.tags2._
+// import scalatags.JsDom.all._
+import scalatags.Text.all._
+import scalatags.Text.tags2.nav
+
+import scala.scalajs.js
+import scala.scalajs.js.annotation.JSExport
+import org.scalajs.dom
+import org.scalajs.jquery.{jQuery=>$,_}
+import shared.dbclasses.Usuario
+import scala.util.Try
+
+@JSExport
+object Header {
+  @JSExport
+  def main(user: String) = {
+    val needToLogin = li(`class`:="dropdown",
+      a(href:="#", `class`:="dropdown-toggle", data("toggle"):="dropdown",
+        b("Iniciar Sesion"), span(`class`:="caret")),
+      ul(id:="login-dp", `class`:="dropdown-menu",
+        li(
+          div(`class`:="row",
+
+            div(`class`:="col-md-12",
+              form(`class`:="form", role:="form", method:="POST", action:="/login", "accept-charset".attr:="UTF-8", id:="login-nav",
+                div(`class`:="form-group",
+                  label(`class`:="sr-only", `for`:="exampleDNI", "DNI"),
+                  input(`type`:="text", `class`:="form-control", id:="exampleDNI", placeholder:="DNI", required, name:="dni")
+                ),
+                div(`class`:="form-group",
+                  label(`class`:="sr-only", `for`:="examplePassword", "Password"),
+                  input(`type`:="password", `class`:="form-control", id:="examplePassword", placeholder:="Password", required, name:="password")
+                ),
+                a(rel:="login", href:="/login", title:="Crear cuenta",
+                  style:="float: right; margin-bottom: 4px;",
+                  b("Crear cuenta")),
+                div(`class`:="form-group",
+                  button(`type`:="submit", `class`:="btn btn-primary btn-block", "Entrar")
+                )
+              )
+            )
+          )
+        )
+      )
+    )
+
+    def userLogged(user: String) = {
+      li(`class`:="dropdown",
+        a(href:="#", `class`:="dropdown-toggle", data("toggle"):="dropdown",
+          user, span(`class`:="glyphicon glyphicon-user pull-right", style:="margin-left: 8px; padding-top: 3px;")),
+        ul(id:="user-dp", `class`:="dropdown-menu", style:="margin-top:8px;",
+          li(a(rel:="profile", href:="/profile", title:="Profile", b("Profile"),
+            span(`class`:="glyphicon glyphicon-cog pull-right", style:="margin-top: -16px;")
+          )),
+          li(
+            a(rel:="logout", href:="/logout", title:="Logout", b("Logout"),
+              span(`class`:="glyphicon glyphicon-log-out pull-right", style:="margin-top: -16px;")
+            )
+          )
+        )
+      )
+    }
+
+    val userHTML = user match {
+      case "" => needToLogin
+      case user => userLogged(user)
+    }
+
+    val headerHTML =
+      nav(`class`:="navbar navbar-default navbar-fixed-top",
+        div(`class`:="container-fluid",
+          div(`class`:="navbar-header",
+            button(`type`:="button", `class`:="navbar-toggle collapsed", data("toggle"):="collapse", data("target"):="#bs-example-navbar-collapse-1", "aria-expanded".attr:="false",
+              span(`class`:="sr-only", "Toggle navigation"),
+              span(`class`:="icon-bar"),
+              span(`class`:="icon-bar"),
+              span(`class`:="icon-bar")
+            ),
+            a(`class`:="navbar-brand", rel:="home", href:="/", title:="Shut Up and Rent My Car",
+              img(style:="max-width:87px; margin-top: -15px; margin-left: -14px;", src:="/assets/images/fry.png")),
+            if($("body").width() >= 490) img(style:="", src:="/assets/images/logo2.png")
+          ),
+          div(`class`:="collapse navbar-collapse", id:="bs-example-navbar-collapse-1",
+            // ul(`class`:="nav navbar-nav",
+            //   li(`class`:="", a(href:="#", "Link"))
+            // ),
+            ul(`class`:="nav navbar-nav navbar-right",
+              userHTML
+            )
+          )
+        )
+      )
+
+    $("#header").append(headerHTML.render)
+  }
+
+}
diff --git a/client/src/main/scala/Login.scala b/client/src/main/scala/Login.scala
index c89ef26..7112432 100644
--- a/client/src/main/scala/Login.scala
+++ b/client/src/main/scala/Login.scala
@@ -5,22 +5,118 @@ import all._
 import scala.scalajs.js
 import scala.scalajs.js.annotation.JSExport
 import org.scalajs.dom
+import js.Dynamic.{ global => g }
 import org.scalajs.jquery.{jQuery=>$,_}
 
 @JSExport
 object Login {
+  def center(outer: js.Any, content: String) = {
+    $(content).css("position", "absolute")
+    if ($(outer).width() >= 600) {
+      $(content).css("width", "600")
+    }
+    $(content).css("left", ($(outer).width() - $(content).outerWidth())/2)
+    $(content).css("top", ($(outer).height() - $(content).outerHeight())/2)
+  }
+
+  def createField(lbl: String, fieldname: String, typ: String = "text", auto: String = "on") = div(`class`:="login-field-wrap",
+    label(`class`:="login-label", lbl, span(`class`:="req", "*")),
+    input(`class`:="login-input", name:=fieldname, `type`:=typ, required, autocomplete:=auto)
+  )
+
   @JSExport
   def main(errortext: String = "", successtext: String = "") = {
-    val formHTML = form(
-      action:="/login",
-      method:="POST",
-      h1("Sign in"),
-      if (errortext != "") p(`class`:="error", errortext),
-      if (successtext != "") p(`class`:="success", successtext),
-      p(input(`type`:="text", name:="dni", placeholder:="DNI", id:="dni")),
-      p(input(`type`:="password", name:="password", id:="password", placeholder:="Password")),
-      p(button(`type`:="submit", id:="loginbutton", "Login"))
+    val labeldos = "labeldos".tag[dom.html.Label]
+
+    val signupHTML = div(id:="signup",
+      form(action:="/signup", method:="POST",
+        div(`class`:="login-top-row",
+          createField("Nombre", "nombre"),
+          createField("Apellidos", "apellidos")
+        ),
+        createField("DNI", "dni"),
+        createField("Email", "email"),
+        createField("Password", "password", "password", "off"),
+        createField("Confirm Password", "passwordConfirm", "password", "off"),
+        div(`class`:="login-field-wrap2",
+          label(`class`:="login-label2", "Tipo de cliente", span(`class`:="req", "*")),
+          select(`class`:="custom-select", name:="tipoCliente",
+            // optgroup(
+              option(value:="normal", "Particular"),
+              option(value:="empresa", "Empresa")
+            // )
+          )
+        ),
+        button(`type`:="submit", `class`:="login-button login-button-block", "Registrate")
+      )
+    )
+
+    val loginHTML = div(id:="login",
+      h1(`class`:="login-text-h1", "Bienvenido de nuevo!"),
+      form(action:="/login", method:="POST",
+        createField("DNI", "dni"),
+        createField("Contraseña", "password", "password", "off"),
+        // p(`class`:="login-forgot", a(href:="#", "Forgot Password?"))
+        button(`class`:="login-button login-button-block", "Entrar")
+      )
+    )
+
+    val formHTML = div(`class`:="login-form",
+      ul(
+        `class`:="login-tab-group",
+        li(`class`:="tab active", a(href:="#signup", "Registrarse")),
+        li(`class`:="tab", a(href:="#login", "Iniciar sesion"))
+      ),
+      div(`class`:="login-tab-content",
+        signupHTML,
+        loginHTML
+      )
     )
-    $(".content").append(formHTML.render)
+
+    $("#content").append(formHTML.render)
+
+    $(".login-form").find("input, textarea").on("keyup blur focus", (e: JQueryEventObject) => {
+      val $this = $(e.target)
+      val label = $this.prev("label")
+      val isempty = $this.`val`().asInstanceOf[String] == ""
+      val classes = e.`type` match {
+        case "keyup" => if (isempty) "active highlight" else "active highlight"
+        case "blur" => if (isempty) "active highlight" else "highlight"
+        case "focus" => if (isempty) "highlight" else "highlight"
+        case _ => ""
+      }
+      if (isempty)
+        label.removeClass(classes)
+      else
+        label.addClass(classes)
+    })
+
+    $(".tab a").on("click", (e: JQueryEventObject) => {
+      e.preventDefault()
+      val $this = $(e.target)
+      val target = $this.attr("href")
+      $this.parent().addClass("active").siblings().removeClass("active")
+      $(".login-tab-content > div").not(target).hide()
+      $(target).fadeIn(600)
+    })
+
+    $("#content").resize(() => {
+      center("#content", ".login-form")
+    })
+
+    val url = dom.window.location.href.split("#")
+    if (url.length > 1) {
+      url(1) match {
+        case "login" => {
+          val l = $("#login")
+          $(".login-tab-content > div").not(l).hide()
+          l.addClass("active").siblings().removeClass("active")
+          l.fadeIn(600)
+          $("#login .login-input").first().focus()
+        }
+        case _ =>
+      }
+    }
+
   }
 }
diff --git a/client/src/main/scala/Main.scala b/client/src/main/scala/Main.scala
index d88418d..cac9a5b 100644
--- a/client/src/main/scala/Main.scala
+++ b/client/src/main/scala/Main.scala
@@ -2,10 +2,28 @@ package example
 
 import scala.scalajs.js
 import org.scalajs.dom
+import org.scalajs.jquery.{jQuery=>$,_}
+import js.Dynamic.{ global => g }
 
 object ScalaJSExample extends js.JSApp {
+  def center(outer: js.Any, content: String) = {
+    $(outer).resize(() => {
+      $(content).css("position", "absolute")
+      $(content).css("left", ($(outer).width() - $(content).outerWidth())/2)
+      $(content).css("top", ($(outer).height() - $(content).outerHeight())/2)
+    })
+  }
+
   def main(): Unit = {
     // println("YEAH")
     // dom.document.getElementById("scalajsShoutOut").textContent = SharedMessages.itWorks
+    val content = "#content"
+    val document = g.document
+    val window = g.window
+
+    $(document).ready(() =>{
+      // center(window, content)
+      $(window).resize()
+    })
   }
 }
diff --git a/client/src/main/scala/NewMain.scala b/client/src/main/scala/NewMain.scala
index a5b1008..e3d5fa4 100644
--- a/client/src/main/scala/NewMain.scala
+++ b/client/src/main/scala/NewMain.scala
@@ -18,12 +18,18 @@ import example.helpers.Methods._
 @JSExport
 object NewMain {
   val emptyElem = "Select one"
-  val disSel = select(disabled, emptyElem)
+  val disSel = select(`class`:="selectpicker disabled-select", disabled, emptyElem)
   var franquicias: Option[List[Franquicia]] = None
 
+  def center(outer: js.Any, content: String) = {
+    $(content).css("margin-top", ($(outer).height() - $(content).outerHeight()) / 4)
+  }
+
   def createSelector(name: String, x: List[Tuple2[String, String]], f: String => Unit) = {
     select(
       id:=name,
+      `class`:="selectpicker",
+      "data-live-search".attr:="true",
       onchange:= {() => {
         val selected = $(s"#$name").`val`().asInstanceOf[String]
         f(selected)
@@ -33,18 +39,16 @@ object NewMain {
   }
 
   def ui() = {
-    div(
+    div(id:="franquiciaContainer",
+      h1(`class`:="text-center", "Selecciona tu franquicia mas cercana"),
       div(
-        id:="selectorContainer",
-        div(id:="paisdiv", disSel),
-        div(id:="comunidaddiv", disSel),
-        div(id:="poblaciondiv", disSel),
-        div(id:="franquiciadiv", disSel),
-        button(id:="sendButton", `type`:="button", onclick:=submitData _, disabled, "Send")
+        id:="selectorContainer", style:="margin-top: 20px;",
+        div(`class`:="form-group", label("Pais"), div(id:="paisdiv", disSel)),
+        div(`class`:="form-group", label("Comunidad"), div(id:="comunidaddiv", disSel)),
+        div(`class`:="form-group", label("Poblacion"), div(id:="poblaciondiv", disSel)),
+        div(`class`:="form-group", label("Franquicia"), div(id:="franquiciadiv", disSel)),
+        button(id:="sendButton", `class`:="btn btn-default btn-lg", `type`:="button", onclick:=submitData _, disabled, "Send")
       )
-      // div(
-      //   id:="cochesContainer"
-      // )
     )
   }
 
@@ -66,6 +70,13 @@ object NewMain {
 
   def setButton(p: Boolean) = {
     $("#sendButton").prop("disabled", p);
+    if (!p) {
+      $("#sendButton").removeClass("btn-default")
+      $("#sendButton").addClass("btn-success")
+    } else {
+      $("#sendButton").addClass("btn-default")
+      $("#sendButton").removeClass("btn-success")
+    }
   }
 
   // def generateCocheUI(c: Coche) = {
@@ -93,7 +104,7 @@ object NewMain {
   def franquiciaToString(f: Franquicia) = s"${f.calle} - ${f.numero} (CP: ${f.codigopostal})"
 
   def selectPoblacion(pobl: String) = {
-    $("#franquiciadiv").empty().append(disSel.render)
+    resetSelectors(false, false)
     setButton(true)
     if (pobl != emptyElem) {
       val p = $("#paisesSelector").`val`().asInstanceOf[String]
@@ -107,15 +118,16 @@ object NewMain {
         // val franqsel = createSelector("franquiciaSelector", lista, getCochesFranquicia)
         val franqsel = createSelector("franquiciaSelector", lista, {(f: String) => {
           setButton(f == emptyElem)
+          $("#sendButton").focus()
         }})
         $("#franquiciadiv").empty().append(franqsel.render)
+        selectAndFocus("franquiciaSelector")
       })
     }
   }
 
   def selectComunidad(c: String) = {
-    $("#poblaciondiv").empty().append(disSel.render)
-    $("#franquiciadiv").empty().append(disSel.render)
+    resetSelectors(false)
     setButton(true)
     if (c != emptyElem) {
       val p = $("#paisesSelector").`val`().asInstanceOf[String]
@@ -124,14 +136,13 @@ object NewMain {
         val lista = (List(emptyElem) ++ poblaciones) map { x => (x, x)}
         val poblsel = createSelector("poblacionesSelector", lista, selectPoblacion)
         $("#poblaciondiv").empty().append(poblsel.render)
+        selectAndFocus("poblacionesSelector")
       })
     }
   }
 
   def selectCountry(p: String) = {
-    $("#comunidaddiv").empty().append(disSel.render)
-    $("#poblaciondiv").empty().append(disSel.render)
-    $("#franquiciadiv").empty().append(disSel.render)
+    resetSelectors()
     setButton(true)
     if (p != emptyElem) {
       $.getJSON(s"/api/v1/franquicias/filter?pais=$p", success = (x: js.Any) => {
@@ -139,18 +150,37 @@ object NewMain {
         val lista = (List(emptyElem) ++ comunidades) map { x => (x, x)}
         val comsel = createSelector("comunidadesSelector", lista, selectComunidad)
         $("#comunidaddiv").empty().append(comsel.render)
+        selectAndFocus("comunidadesSelector")
       })
     }
   }
 
+  def selectAndFocus(name: String) = {
+    g.$(s"#$name").selectpicker()
+    $(s"#$name").next("div").children().focus()
+  }
+
+  def resetSelectors(com: Boolean = true, pobl: Boolean = true, franq: Boolean = true) = {
+    if (com) $("#comunidaddiv").empty().append(disSel.render)
+    if (pobl) $("#poblaciondiv").empty().append(disSel.render)
+    if (franq) $("#franquiciadiv").empty().append(disSel.render)
+    g.$(".disabled-select").selectpicker()
+  }
+
   @JSExport
   def main() = {
-    $(".content").append(ui().render)
+    $("#content").append(ui().render)
     $.getJSON("/api/v1/franquicias/filter", success = (x: js.Any) => {
       val countries = readDynamic[List[String]](x)
       val lista = (List(emptyElem) ++ countries) map { x => (x, x)}
       val countrsel = createSelector("paisesSelector", lista, selectCountry)
+
       $("#paisdiv").empty().append(countrsel.render)
+      selectAndFocus("paisesSelector")
     })
+
+    // $(g.window).resize(() => {
+    //   center("#franquiciaContainer", "#selectorContainer")
+    // })
   }
 }
diff --git a/client/src/main/scala/Reserva.scala b/client/src/main/scala/Reserva.scala
new file mode 100644
index 0000000..98412d4
--- /dev/null
+++ b/client/src/main/scala/Reserva.scala
@@ -0,0 +1,77 @@
+package example
+
+import scalatags.JsDom._
+import all._
+import scala.scalajs.js
+import scala.scalajs.js.annotation.JSExport
+import org.scalajs.dom
+import js.Dynamic.{ global => g }
+import org.scalajs.jquery.{jQuery=>$,_}
+// import shared.classes.Gama
+// import Gama._
+
+@JSExport
+object Reserva {
+  def center(outer: js.Any, content: String) = {
+    if ($(outer).width() >= 600) {
+      $(content).css("width", "600")
+    }
+    $(content).css("margin-left", ($(outer).width() - $(content).outerWidth())/2)
+    $(content).css("margin-top", 15)
+  }
+
+
+  def createField(lbl: String,
+    fieldname: String,
+    typ: String = "text",
+    readon: String = "") = div(`class`:="login-field-wrap",
+      label(`class`:=s"${if(readon == "") "login-label" else "login-label active highlight"}", lbl, span(`class`:="req", "*")),
+      input(`class`:="login-input", name:=fieldname, `type`:=typ, required, autocomplete:="on", if(readon != "") readonly, if(readon != "") value:=readon)
+  )
+
+  @JSExport
+  def main(coche: String,
+    gamaCocheStr: String,
+    franq: Int,
+    userid: String,
+    both: Boolean,
+    errortext: String = "",
+    successtext: String = "") = {
+    g.window.console.log(coche, gamaCocheStr, franq, userid, both, errortext, successtext)
+    val reservaHTML = div(id:="selectorContainer",
+      form(action:=s"/reservar/$franq/$coche", method:="POST",
+        createField("DNI usuario a reservar", "idusuario", readon=if (both) userid else ""),
+        input(name:="idcoche", `type`:="hidden", required, value:=coche),
+        createField("Tarjeta", "tarjeta"),
+        createField("Caducidad (MM-yy)", "caducidadtarjeta"), // caducidad
+        createField("Tipo tarjeta (Mastercard, ...)", "tipotarjeta"),
+        createField("Fecha inicio (yyyy-mm-dd)", "fechainicio"),
+        createField("TipoReserva (select)", "tiporeserva"),
+        label(id:="precio", "Show calculated price"),
+        button(`type`:="sumbit", `class`:="btn btn-success", "Reservar!")
+      )
+    )
+    $("#content").append(reservaHTML.render)
+
+    $("#selectorContainer").find("input").on("keyup blur focus", (e: JQueryEventObject) => {
+      val $this = $(e.target)
+      val label = $this.prev("label")
+      val isempty = $this.`val`().asInstanceOf[String] == ""
+      val classes = e.`type` match {
+        case "keyup" => if (isempty) "active highlight" else "active highlight"
+        case "blur" => if (isempty) "active highlight" else "highlight"
+        case "focus" => if (isempty) "highlight" else "highlight"
+        case _ => ""
+      }
+      if (isempty)
+        label.removeClass(classes)
+      else
+        label.addClass(classes)
+    })
+
+    center("#content", "#selectorContainer")
+    $(g.window).resize(() => {
+      center("#content", "#selectorContainer")
+    })
+  }
+}
diff --git a/client/src/main/scala/ShowCochesFranquicia.scala b/client/src/main/scala/ShowCochesFranquicia.scala
index dac189a..e8e0061 100644
--- a/client/src/main/scala/ShowCochesFranquicia.scala
+++ b/client/src/main/scala/ShowCochesFranquicia.scala
@@ -17,36 +17,67 @@ import example.helpers.Methods._
 
 @JSExport
 object ShowCochesFranquicia {
+  var franquiciaId = -1
+
   def ui() = {
     div(
-      div(id:="info"),
-      div(id:="cochesContainer")
+      div(id:="info", style:="text-align: center;"),
+      ul(`class`:="thumbnails list-unstyled", id:="cochesContainer")
     )
   }
 
   def reservarCoche(id: String)() = {
-
+    if (franquiciaId > 0)
+      g.window.location.href = s"/reservar/$franquiciaId/$id"
   }
 
   def generateCocheUI(c: Coche) = {
     val dispo = c.estado.isInstanceOf[Disponible.type]
-    div(
+    li(`class`:="col-md-3",
       id:=c.matricula,
       if (!dispo) disabled,
-      `class`:=s"coche ${if (!dispo) "nodisponible"}",
-      h3(s"${c.marca} ${c.modelo} - Gama ${c.gama} - ${c.estado}"),
-      img(src:=s"data:image/png;base64, ${c.foto}"),
-      button(
-        onclick:=reservarCoche(c.matricula) _,
-        if (!dispo) disabled,
-        if (dispo) "Reservar" else "No disponible"
+      div(`class`:="thumbnail", style:="padding: 0;",
+        div(style:="padding: 4px;",
+          img(alt:="300x200", style:="width: 100%;", height:="150px", width:="200px",
+            src:=s"data:image/png;base64, ${c.foto}"
+          )
+        ),
+        div(`class`:="caption", // style:="text-align: left;",
+          h2(s"${c.marca} ${c.modelo}"),
+          p(s"Gama ${c.gama}"),
+          p(i(`class`:="icon icon-map-marker"), s"${c.estado}")
+        ),
+        div(`class`:="modal-footer", style:="text-align: center;",
+          button(
+            onclick:=reservarCoche(c.matricula) _,
+            `class`:=s"btn ${if(dispo) "btn-success" else "btn-danger"} btn-lg",
+            if (!dispo) disabled,
+            if (dispo) "Reservar" else "No disponible"
+          ))
       )
     )
   }
 
+  // def t(c: Coche) = {
+  //   val dispo = c.estado.isInstanceOf[Disponible.type]
+  //   div(
+  //     id:=c.matricula,
+  //     if (!dispo) disabled,
+  //     `class`:=s"coche ${if (!dispo) "nodisponible"}",
+  //     h3(s"${c.marca} ${c.modelo} - Gama ${c.gama} - ${c.estado}"),
+  //     img(src:=s"data:image/png;base64, ${c.foto}"),
+  //     button(
+  //       onclick:=reservarCoche(c.matricula) _,
+  //       if (!dispo) disabled,
+  //       if (dispo) "Reservar" else "No disponible"
+  //     )
+  //   )
+  // }
+
   @JSExport
   def main(id: Int, calle: String, numero: Int, pais: String, comunidad: String, poblacion: String, codigopostal: Int) = {
-    $(".content").append(ui().render)
+    franquiciaId = id
+    $("#content").append(ui().render)
     $("#info").append(
       div(
         h3(s"$calle - $numero (CP: $codigopostal)")
@@ -62,7 +93,8 @@ object ShowCochesFranquicia {
       else List(h1("No hay coches en esta franquicia ahora mismo..."))
 
       g.window.setTimeout(() => {
-        $("#cochesContainer").empty().append(cochesDivs.render)
+        val rendered = cochesDivs.render
+          $("#cochesContainer").empty().append(rendered)
       }, 2700)
     })
   }
diff --git a/server/app/assets/images/fry.png b/server/app/assets/images/fry.png
new file mode 100644
index 0000000..b6a4d02
Binary files /dev/null and b/server/app/assets/images/fry.png differ
diff --git a/server/app/assets/images/loadCoches.gif b/server/app/assets/images/loadCoches.gif
index 36b66c6..b0e65fb 100644
Binary files a/server/app/assets/images/loadCoches.gif and b/server/app/assets/images/loadCoches.gif differ
diff --git a/server/app/assets/images/loadCoches2.gif b/server/app/assets/images/loadCoches2.gif
new file mode 100644
index 0000000..36b66c6
Binary files /dev/null and b/server/app/assets/images/loadCoches2.gif differ
diff --git a/server/app/assets/images/loadCochesLoop.gif b/server/app/assets/images/loadCochesLoop.gif
new file mode 100644
index 0000000..50e53a1
Binary files /dev/null and b/server/app/assets/images/loadCochesLoop.gif differ
diff --git a/server/app/assets/images/logo.png b/server/app/assets/images/logo.png
new file mode 100644
index 0000000..a2add45
Binary files /dev/null and b/server/app/assets/images/logo.png differ
diff --git a/server/app/assets/images/logo2.png b/server/app/assets/images/logo2.png
new file mode 100644
index 0000000..2c8789b
Binary files /dev/null and b/server/app/assets/images/logo2.png differ
diff --git a/server/app/assets/stylesheets/login_normalize.css b/server/app/assets/stylesheets/login_normalize.css
new file mode 100644
index 0000000..c7cc828
--- /dev/null
+++ b/server/app/assets/stylesheets/login_normalize.css
@@ -0,0 +1 @@
+/*! normalize.css v3.0.2 | MIT License | git.io/normalize */html{font-family:sans-serif;-ms-text-size-adjust:100%;-webkit-text-size-adjust:100%}body{margin:0}article,aside,details,figcaption,figure,footer,header,hgroup,main,menu,nav,section,summary{display:block}audio,canvas,progress,video{display:inline-block;vertical-align:baseline}audio:not([controls]){display:none;height:0}[hidden],template{display:none}a{background-color:transparent}a:active,a:hover{outline:0}abbr[title]{border-bottom:1px dotted}b,strong{font-weight:bold}dfn{font-style:italic}h1{font-size:2em;margin:0.67em 0}mark{background:#ff0;color:#000}small{font-size:80%}sub,sup{font-size:75%;line-height:0;position:relative;vertical-align:baseline}sup{top:-0.5em}sub{bottom:-0.25em}img{border:0}svg:not(:root){overflow:hidden}figure{margin:1em 40px}hr{-moz-box-sizing:content-box;-webkit-box-sizing:content-box;box-sizing:content-box;height:0}pre{overflow:auto}code,kbd,pre,samp{font-family:monospace, monospace;font-size:1em}button,input,optgroup,select,textarea{color:inherit;font:inherit;margin:0}button{overflow:visible}button,select{text-transform:none}button,html input[type="button"],input[type="reset"],input[type="submit"]{-webkit-appearance:button;cursor:pointer}button[disabled],html input[disabled]{cursor:default}button::-moz-focus-inner,input::-moz-focus-inner{border:0;padding:0}input{line-height:normal}input[type="checkbox"],input[type="radio"]{-webkit-box-sizing:border-box;-moz-box-sizing:border-box;box-sizing:border-box;padding:0}input[type="number"]::-webkit-inner-spin-button,input[type="number"]::-webkit-outer-spin-button{height:auto}input[type="search"]{-webkit-appearance:textfield;-moz-box-sizing:content-box;-webkit-box-sizing:content-box;box-sizing:content-box}input[type="search"]::-webkit-search-cancel-button,input[type="search"]::-webkit-search-decoration{-webkit-appearance:none}fieldset{border:1px solid #c0c0c0;margin:0 2px;padding:0.35em 0.625em 0.75em}legend{border:0;padding:0}textarea{overflow:auto}optgroup{font-weight:bold}table{border-collapse:collapse;border-spacing:0}td,th{padding:0}
diff --git a/server/app/assets/stylesheets/login_style.css b/server/app/assets/stylesheets/login_style.css
new file mode 100644
index 0000000..ce8c4d9
--- /dev/null
+++ b/server/app/assets/stylesheets/login_style.css
@@ -0,0 +1,225 @@
+*,
+*:before,
+*:after {
+    box-sizing: border-box;
+}
+
+.login-form {
+    background: rgba(19, 35, 47, 0.9);
+    padding: 40px;
+    padding-top: 20px;
+    padding-bottom: 20px;
+    max-width: 600px;
+    margin: 40px auto;
+    margin-top: 5px;
+    border-radius: 4px;
+    box-shadow: 0 4px 10px 4px rgba(19, 35, 47, 0.3);
+    margin-top: 20px;
+}
+
+.login-tab-group {
+    list-style: none;
+    padding: 0;
+    margin: 0 0 20px 0;
+}
+.login-tab-group:after {
+    content: "";
+    display: table;
+    clear: both;
+}
+.login-tab-group li a {
+    display: block;
+    text-decoration: none;
+    padding: 8px;
+    background: rgba(160, 179, 176, 0.25);
+    color: #a0b3b0;
+    font-size: 18px;
+    float: left;
+    width: 50%;
+    text-align: center;
+    cursor: pointer;
+    -webkit-transition: .5s ease;
+    transition: .5s ease;
+}
+.login-tab-group li a:hover {
+    background: #179b77;
+    color: #ffffff;
+}
+.login-tab-group .active a {
+    background: #1ab188;
+    color: #ffffff;
+}
+
+.login-tab-content > div:last-child {
+    display: none;
+}
+
+.login-text-h1 {
+    text-align: center;
+    color: #ffffff;
+    font-weight: 300;
+    margin: 0 0 40px;
+}
+
+.login-label {
+    position: absolute;
+    -webkit-transform: translateY(6px);
+    -ms-transform: translateY(6px);
+    transform: translateY(6px);
+    left: 13px;
+    color: rgba(255, 255, 255, 0.5);
+    -webkit-transition: all 0.25s ease;
+    transition: all 0.25s ease;
+    -webkit-backface-visibility: hidden;
+    pointer-events: none;
+    font-size: 15px;
+}
+
+.login-label2 {
+    -webkit-transform: translateY(6px);
+    -ms-transform: translateY(6px);
+    transform: translateY(6px);
+    left: 13px;
+    color: rgba(255, 255, 255, 0.5);
+    -webkit-transition: all 0.25s ease;
+    transition: all 0.25s ease;
+    -webkit-backface-visibility: hidden;
+    pointer-events: none;
+    font-size: 22px;
+}
+
+.login-label .req {
+    margin: 2px;
+    color: #1ab188;
+}
+
+.login-label.active {
+    -webkit-transform: translateY(35px);
+    -ms-transform: translateY(35px);
+    transform: translateY(35px);
+    -webkit-transition-duration: 600ms; /* Safari */
+    transition-duration: 600ms;
+    transition-timing-function: ease-out;
+    left: 2px;
+    font-size: 14px;
+}
+.login-label.active .req {
+    opacity: 0;
+}
+
+.login-label.highlight {
+    color: #ffffff;
+}
+
+.login-input, .login-textarea {
+    font-size: 15px;
+    display: block;
+    width: 100%;
+    height: 100%;
+    padding: 4px 10px;
+    background: none;
+    background-image: none;
+    border: 1px solid #a0b3b0;
+    color: #ffffff;
+    border-radius: 0;
+    -webkit-transition: border-color .25s ease, box-shadow .25s ease;
+    transition: border-color .25s ease, box-shadow .25s ease;
+}
+.login-input:focus,
+.login-textarea:focus {
+    outline: 0;
+    border-color: #1ab188;
+}
+.login-input[readonly] {
+    background: gray;
+}
+
+.login-textarea {
+    border: 2px solid #a0b3b0;
+    resize: vertical;
+}
+
+.login-field-wrap {
+    position: relative;
+    margin-bottom: 30px;
+}
+
+.login-field-wrap2 {
+    position: relative;
+    margin-bottom: 30px;
+    margin-top: -10px;
+    /* margin-left: 20%; */
+}
+
+.login-top-row:after {
+    content: "";
+    display: table;
+    clear: both;
+}
+.login-top-row > div {
+    float: left;
+    width: 48%;
+    margin-right: 4%;
+}
+
+.login-top-row > div:last-child {
+    margin: 0;
+}
+
+.login-button {
+    border: 0;
+    outline: none;
+    border-radius: 0;
+    padding: 8px 0;
+    font-size: 2rem;
+    font-weight: 600;
+    text-transform: uppercase;
+    letter-spacing: .1em;
+    background: #1ab188;
+    color: #ffffff;
+    -webkit-transition: all 0.5s ease;
+    transition: all 0.5s ease;
+    -webkit-appearance: none;
+}
+.login-button:hover, .login-button:focus {
+                   background: #179b77;
+               }
+
+.login-button-block {
+    display: block;
+    width: 100%;
+}
+
+.login-forgot {
+    margin-top: -20px;
+    text-align: right;
+}
+
+.custom-select {
+    /* padding:3px; */
+    margin: 0;
+    padding-left: 5px;
+    padding-right: 5px;
+    margin-left: 5px;
+    -webkit-border-radius:4px;
+    -moz-border-radius:4px;
+    border-radius:4px;
+    -webkit-box-shadow: 0 3px 0 #ccc, 0 -1px #fff inset;
+    -moz-box-shadow: 0 3px 0 #ccc, 0 -1px #fff inset;
+    box-shadow: 0 3px 0 #ccc, 0 -1px #fff inset;
+    background: #f8f8f8;
+    color:#888;
+    border:none;
+    outline:none;
+    display: inline-block;
+    -webkit-appearance:none;
+    -moz-appearance:none;
+    appearance:none;
+    cursor:pointer;
+
+    position: relative;
+    top: 50%;
+    -webkit-transform: translateY(-20%);
+    -ms-transform: translateY(-20%);
+    transform: translateY(-20%);
+}
diff --git a/server/app/assets/stylesheets/main.css b/server/app/assets/stylesheets/main.css
index 0b5fc86..c1bba35 100644
--- a/server/app/assets/stylesheets/main.css
+++ b/server/app/assets/stylesheets/main.css
@@ -1,3 +1,8 @@
+body {
+    font-family: 'Titillium Web', sans-serif;
+    background: #E7E7E7;
+}
+
 #cochesContainer {
     /* display: flex; */
     /* justify-content: center; */
@@ -17,3 +22,160 @@
     max-width: 100%;
     max-height: 100%;
 }
+
+#content {
+    /* overflow-y: auto; */
+    /* display:flex;justify-content:center;align-items:center;width:80%; */
+    background: white;
+    padding-top: 50px;
+    padding-bottom: 50px;
+    min-height: 100%;
+}
+
+#content-container {
+    width: 80%;
+    background: #FFF none repeat scroll 0% 0%;
+    margin: 0px auto;
+    height: 100%;
+    margin-top: 60px;
+}
+
+#selectorContainer {
+    background: rgba(19, 35, 47, 0.9);
+    padding: 40px;
+    padding-top: 20px;
+    padding-bottom: 20px;
+    max-width: 460px;
+    border-radius: 4px;
+    box-shadow: 0 4px 10px 4px rgba(19, 35, 47, 0.3);
+    float: none;
+    margin: 0 auto;
+}
+
+#selectorContainer label {
+    color: white;
+}
+
+#selectorContainer .btn-group {
+    width: 100%;
+}
+
+#selectorContainer button {
+    width: 100%;
+}
+
+/* Bootstrap Modifiers */
+
+.container-fluid {
+    margin: 0 auto;
+    height: 100%;
+    -moz-box-sizing: border-box;
+    -webkit-box-sizing: border-box;
+    box-sizing: border-box;
+}
+
+.row {
+    height: 100%;
+}
+
+.navbar {
+    height: 60px;
+    background: #26974C;
+    margin-bottom: 0px;
+    z-index: 10;
+}
+
+.navbar-default .navbar-nav > li > a {
+    color: white;
+    background-color: #3DC962;
+}
+
+.navbar-default .navbar-nav > li > a:hover {
+    color: white;
+    background-color: #36AF55;
+}
+
+.navbar-text {
+    margin-top: 19px;
+    margin-bottom: 19px;
+}
+
+.navbar-nav > li {
+    color: white;
+    background-color: #3DC962;
+}
+
+.navbar-nav > li:hover {
+    color: white;
+    background-color: #36AF55;
+}
+
+.navbar-nav> li > a {
+    padding-top: 19px;
+    padding-bottom: 19px;
+}
+
+
+/* LOGIN FORM */
+
+#login-dp{
+    min-width: 250px;
+    padding: 14px 14px 0;
+    overflow:hidden;
+    background-color:rgba(255,255,255,.8);
+}
+#login-dp .help-block{
+    font-size:12px
+}
+#login-dp .bottom{
+    background-color:rgba(255,255,255,.8);
+    border-top:1px solid #ddd;
+    clear:both;
+    padding:14px;
+}
+#login-dp .social-buttons{
+    margin:12px 0
+}
+#login-dp .social-buttons a{
+    width: 49%;
+}
+#login-dp .form-group {
+    margin-bottom: 10px;
+}
+@media(max-width:768px){
+    #login-dp{
+        background-color: inherit;
+        color: #fff;
+    }
+    #login-dp .bottom{
+        background-color: inherit;
+        border-top:0 none;
+    }
+}
+
+dropdown ul.dropdown-menu {
+    border-radius:4px;
+    box-shadow:none;
+    margin-top:20px;
+    width:300px;
+}
+.dropdown ul.dropdown-menu:before {
+    content: "";
+    border-bottom: 10px solid #fff;
+    border-right: 10px solid transparent;
+    border-left: 10px solid transparent;
+    position: absolute;
+    top: -10px;
+    right: 16px;
+    z-index: 10;
+}
+.dropdown ul.dropdown-menu:after {
+    content: "";
+    border-bottom: 12px solid #ccc;
+    border-right: 12px solid transparent;
+    border-left: 12px solid transparent;
+    position: absolute;
+    top: -12px;
+    right: 14px;
+    z-index: 9;
+}
diff --git a/server/app/assets/stylesheets/style.css b/server/app/assets/stylesheets/style.css
new file mode 100644
index 0000000..c600abd
--- /dev/null
+++ b/server/app/assets/stylesheets/style.css
@@ -0,0 +1,114 @@
+html, body {
+    margin: 0;
+    height: 100%;
+    padding: 0;
+    width: 100%;
+}
+
+header {
+    height:60px;
+    background:#1E842B;
+    position: fixed;
+    width: 100%;
+    top: 0;
+    left: 0;
+    z-index: 10;
+}
+
+header p {
+    color: white;
+    font-size: medium;
+    margin-top: 20px;
+}
+
+#logo-header {
+    float: left;
+    padding: 0 0 0 20px;
+    text-decoration: none;
+}
+#logo-header:hover {
+    color: #0b76a6;
+}
+
+#logo-header .site-name {
+    display: block;
+    font-weight: 700;
+    font-size: 1.2em;
+}
+
+#logo-header .site-desc {
+    display: block;
+    font-weight: 300;
+    font-size: 0.8em;
+    color: #999;
+}
+
+/* nav { */
+/*     float: right; */
+/* } */
+/* nav ul { */
+/*     margin: 0; */
+/*     padding: 0; */
+/*     list-style: none; */
+/*     padding-right: 20px; */
+/* } */
+
+#login-header {
+    display: inline-block;
+    line-height: 60px;
+}
+
+#login-header a {
+    display: block;
+    padding: 0 10px;
+    text-decoration: none;
+}
+#login-header a:hover {
+    background: #0b76a6;
+    color: white;
+}
+
+#content {
+    /* width: 80%; */
+    /* margin: 0 auto; */
+    /* margin-top: 60px; */
+    /* margin-bottom: 43px; */
+    /* padding: 5px 5px; */
+}
+
+footer {
+    width: 100%;
+    height: 43px;
+    position: fixed;
+    bottom: 0;
+    left: 0;
+    background: #26974C;
+    text-align: center;
+    z-index: 10;
+    padding-top: 12px;
+}
+
+footer p {
+    color: white;
+    font-size: small;
+}
+
+/* A:link { */
+/*     text-decoration:none; */
+/*     color:white; */
+/* } */
+
+/* A:visited { */
+/*     text-decoration:none; */
+/*     color:white; */
+/* } */
+
+/* A:active { */
+/*     text-decoration:none; */
+/*     color:white; */
+/* } */
+
+/* A:hover { */
+/*     text-decoration:none; */
+/*     color:white; */
+/* } */
diff --git a/server/app/auth/AuthTrait.scala b/server/app/auth/AuthTrait.scala
index 27f97ac..ee16cde 100644
--- a/server/app/auth/AuthTrait.scala
+++ b/server/app/auth/AuthTrait.scala
@@ -64,8 +64,11 @@ trait AuthConfigImpl extends AuthConfig {
   /**
     * Where to redirect the user after a successful login.
     */
-  def loginSucceeded(request: RequestHeader)(implicit ctx: ExecutionContext): Future[Result] =
-    Future.successful(Redirect("/"))
+  def loginSucceeded(request: RequestHeader)(implicit ctx: ExecutionContext): Future[Result] = {
+    val refererUri = request.headers.get("Referer").getOrElse("/")
+    val uri = request.session.get("access_uri").getOrElse(refererUri)
+    Future.successful(Redirect(uri).withSession(request.session - "access_uri"))
+  }
     // Future.successful(Redirect(routes.Message.main))
 
   /**
@@ -79,7 +82,7 @@ trait AuthConfigImpl extends AuthConfig {
     * If the user is not logged in and tries to access a protected resource then redirect them as follows:
     */
   def authenticationFailed(request: RequestHeader)(implicit ctx: ExecutionContext): Future[Result] =
-    Future.successful(Redirect("/login"))
+    Future.successful(Redirect("/login#login").withSession("access_uri" -> request.uri))
     // Future.successful(Redirect(routes.Application.login))
 
   /**
diff --git a/server/app/aux/Methods.scala b/server/app/aux/Methods.scala
index 7dc120c..6453690 100644
--- a/server/app/aux/Methods.scala
+++ b/server/app/aux/Methods.scala
@@ -2,4 +2,5 @@ package aux
 
 object Methods {
   def applyImpl[T, R] (implicit f: T => R): (T => R) = (x: T) => f(x)
+  def userToName(u: Option[shared.dbclasses.Usuario]) = u map { _.nombre } getOrElse ""
 }
diff --git a/server/app/controllers/AwesomeApp.scala b/server/app/controllers/AwesomeApp.scala
index 0fda888..b5b92d6 100644
--- a/server/app/controllers/AwesomeApp.scala
+++ b/server/app/controllers/AwesomeApp.scala
@@ -3,18 +3,20 @@ package controllers
 import play.api.mvc._
 import play.api.libs.concurrent.Execution.Implicits.defaultContext
 import javax.inject.Inject
-import jp.t2v.lab.play2.auth.AuthElement
 import tables.FranquiciaDB
 import auth.AuthConfigImpl
+import jp.t2v.lab.play2.auth.OptionalAuthElement
+import aux.Methods.userToName
 
-class AwesomeApplication @Inject() (franquiciaDB: FranquiciaDB) extends Controller with AuthElement with AuthConfigImpl {
-  def main() = Action {
-    Ok(views.html.newmain())
+class AwesomeApplication @Inject() (franquiciaDB: FranquiciaDB) extends Controller with OptionalAuthElement with AuthConfigImpl {
+
+  def main() = StackAction { implicit request =>
+    Ok(views.html.newmain(userToName(loggedIn)))
   }
 
-  def showCochesFranquicia(id: Int) = Action.async { implicit request =>
+  def showCochesFranquicia(id: Int) = AsyncStack { implicit request =>
     franquiciaDB.getFranquicia(id) map {
-      case Some(f) => Ok(views.html.showfranquicia(id, f.calle, f.numero, f.pais, f.comunidad, f.poblacion, f.codigopostal))
+      case Some(f) => Ok(views.html.showfranquicia(id, f.calle, f.numero, f.pais, f.comunidad, f.poblacion, f.codigopostal, userToName(loggedIn)))
       case None => NotFound(views.html.notFound(request.path))
     }
   }
diff --git a/server/app/controllers/AwesomeLoggedApp.scala b/server/app/controllers/AwesomeLoggedApp.scala
new file mode 100644
index 0000000..171ecc1
--- /dev/null
+++ b/server/app/controllers/AwesomeLoggedApp.scala
@@ -0,0 +1,148 @@
+package controllers
+
+import play.api.mvc._
+import play.api.libs.concurrent.Execution.Implicits.defaultContext
+import javax.inject.Inject
+import auth.AuthConfigImpl
+import scala.concurrent.{Future, Await}
+import jp.t2v.lab.play2.auth.AuthElement
+import shared.classes.{TipoUsuario, Estado, TipoReserva}
+import TipoUsuario._
+import Estado._
+import TipoReserva._
+import tables.{FranquiciaDB, CocheDB, CochesFranquiciaDB, UsuarioDB, TarifaBaseDB, TarifaPeriodoDB, ReservaDB}
+import shared.dbclasses.{Coche, Franquicia, Reserva}
+import aux.Methods.userToName
+import play.api.data.Form
+import play.api.data.Forms._
+import java.sql.{Timestamp, Date}
+import scala.language.implicitConversions
+import scala.language.postfixOps
+import scala.concurrent.duration._
+
+class AwesomeLoggedApplication @Inject() (franquiciaDB: FranquiciaDB, cocheDB: CocheDB, cochesFranquiciaDB: CochesFranquiciaDB, usuarioDB: UsuarioDB, tarifaBaseDB: TarifaBaseDB, tarifaPeriodoDB: TarifaPeriodoDB, reservaDB: ReservaDB) extends Controller with AuthElement with AuthConfigImpl {
+  def validateReserva(id: Option[Int],
+    idusuario: String,
+    idreservante: String,
+    idcoche: String,
+    tarjeta: String,
+    caducidadtarjeta: Date,
+    tipotarjeta: String,
+    fechareserva: Timestamp,
+    fechainicio: Date,
+    tiporeserva: String,
+    precio: Float): Option[Reserva] = {
+    // Reserva final si todo va bien (menos precio que se calcura e idreservante que se injecta)
+    val reserva = Reserva(None, idusuario, idreservante, idcoche, tarjeta, caducidadtarjeta, tipotarjeta, fechareserva, fechainicio, tiporeserva, precio)
+
+    // caducidad posterior o igual a fechainicio
+    val testcadtarj = if (caducidadtarjeta.compareTo(fechainicio) >= 0) Some(true) else None
+    // fechaInicio posterior a hoy
+    val testfecha = if (fechainicio.compareTo(new java.util.Date()) > 0) Some(true) else None
+
+    // Results monadic style
+    testcadtarj flatMap {_ => testfecha} flatMap {_ =>
+      // coche existe y esta disponible
+      val future = cocheDB.getCoche(idcoche) map { cochop => cochop.filter(_.estado.isInstanceOf[Disponible.type])} flatMap {cOpt => cOpt match {
+        case Some(c) => {
+          // coger precio base
+          val baseF = tarifaBaseDB.getPrecio(c.gama, tiporeserva)
+          // coger factor de mult
+          val factorF = tarifaPeriodoDB.getFactor(fechainicio)
+          baseF.zip(factorF) map {
+            // aplicar formuliqui
+            case (Some(base), factor) => Some(base * factor)
+            case _ => None
+          }
+        }
+        case None => Future.successful(None)
+      }}
+      Await.result(future, Duration(1, SECONDS))
+    } map { prec => reserva.copy(precio=prec) }
+  }
+
+  implicit def date2sqlDate(d: java.util.Date) = new java.sql.Date(d.getTime())
+
+  def reservaForm = Form {
+    mapping(
+      "id" -> ignored[Option[Int]](None),
+      "idusuario" -> nonEmptyText,
+      "idreservante" -> ignored[String](""),
+      "idcoche" -> nonEmptyText,
+      "tarjeta" -> nonEmptyText,
+      "caducidadtarjeta" -> sqlDate("MM-yy"),
+      "tipotarjeta" -> nonEmptyText,
+      "fechareserva" -> ignored[Timestamp](new Timestamp(new java.util.Date().getTime())),
+      "fechainicio" -> sqlDate("yyyy-MM-dd"),
+      "tiporeserva" -> nonEmptyText,
+      "precio" -> ignored[Float](0.0F)
+    )(validateReserva)(_.map(r =>
+      (None, r.idusuario, "", r.idcoche, "", r.caducidadtarjeta, "", r.fechareserva, r.fechainicio, r.tiporeserva, 0.0F)))
+      .verifying("Invalid reserva", result => result.isDefined)
+  }
+
+  def postReserva(id: Int, coche: String) = AsyncStack(AuthorityKey -> Normal) { implicit request =>
+    reservaForm.bindFromRequest.fold(
+      // Si el form no paso el comprobante
+      formWithErrors => Future.successful(BadRequest(views.html.reservar(formWithErrors, coche, "", id, loggedIn.dni, loggedIn.tipo.isInstanceOf[Normal.type], loggedIn.nombre))),
+      // Si lo paso vamos por buen camino pero aun hay que comprobar
+      reservaOpt => {
+        reservaOpt map { _.copy(idreservante=loggedIn.dni) } match {
+          case Some(reserva) => {
+            // Comprobar que usuario existe
+            val testuser = usuarioDB.getUser(reserva.idusuario).zip(usuarioDB.getUser(reserva.idreservante)) map {
+              // Si el original es normal el reservado debe ser el mismo
+              // Si es una empresa, el reservado debe ser una personal normal
+              case (Some(ru), Some(origu)) =>
+                ((origu.tipo.isInstanceOf[Normal.type] && ru.dni == origu.dni) ||
+                  (origu.tipo.isInstanceOf[Empresa.type] && ru.tipo.isInstanceOf[Normal.type]))
+              //  si ya se llegaba mal aqui.. false
+              case _ => false
+            }
+
+            testuser flatMap {
+              // When we are here, everything should be Ok?
+              case true => {
+                // Marcar coche como reservado
+                cocheDB.changeState(reserva.idcoche, Reservado) flatMap { int =>
+                  reservaDB.insert(reserva) map { newR =>
+                    Ok(newR.id.get.toString)
+                  }
+                }
+              }
+              case false => Future.successful(BadRequest("Something went really really bad"))
+            }
+          }
+          case None => Future.successful(BadRequest("This should never happend"))
+        }
+      }
+    )
+  }
+
+  def reservarCocheFranquicia(franq: Int, coche: String) = AsyncStack(AuthorityKey -> Normal) { implicit request =>
+    case class Container(coche: Coche, franquicia: Franquicia)
+
+    val cocheFranquicia  = cocheDB.getCoche(coche) flatMap { cocheOpt =>
+      franquiciaDB.getFranquicia(franq) map { franqOpt => (cocheOpt, franqOpt) match {
+        case (None, _) => None
+        case (_, None) => None
+        case (Some(coche), Some(franquicia)) => Some(Container(coche, franquicia))
+      }}
+    }
+
+    val franqByCar = cochesFranquiciaDB.getFranquiciaBycoche(coche)
+
+    cocheFranquicia flatMap { cf =>
+      franqByCar map { realRelation => (cf, realRelation) match {
+        case (None, _) => NotFound(views.html.notFound(request.path))
+        case (_, None) => NotFound(views.html.notFound(request.path))
+        case (Some(Container(_, franquicia)), Some(fid)) if fid != franquicia.id.getOrElse(-1) => NotFound(views.html.notFound(request.path))
+        case (Some(Container(coche, _)), Some(_)) if !coche.estado.isInstanceOf[Disponible.type] => NotFound(views.html.notFound(request.path))
+        case (Some(Container(coche, franquicia)), Some(_)) => {
+          // Here is ok everything!
+          Ok(views.html.reservar(reservaForm, coche.matricula, coche.gama, franquicia.id.get, loggedIn.dni, loggedIn.tipo.isInstanceOf[Normal.type], loggedIn.nombre))
+        }
+      }}
+    }
+  }
+}
diff --git a/server/app/controllers/LoginManager.scala b/server/app/controllers/LoginManager.scala
index 792948d..94150ba 100644
--- a/server/app/controllers/LoginManager.scala
+++ b/server/app/controllers/LoginManager.scala
@@ -17,6 +17,7 @@ import slick.driver.JdbcProfile
 // import shared.classes.Estado
 import tables.UsuarioDB
 import aux.Implicits._
+import aux.Methods.userToName
 import scala.util.Success
 import scala.util.Failure
 import scala.util.{Try, Success, Failure}
@@ -25,17 +26,52 @@ import jp.t2v.lab.play2.auth._
 import play.api.data.Form
 import play.api.data.Forms._
 
-class LoginLogoutApplication @Inject() (usuarioDB: UsuarioDB) extends Controller with LoginLogout with AuthConfigImpl {
+import jp.t2v.lab.play2.auth.OptionalAuthElement
+import shared.dbclasses.Usuario
+import shared.classes.TipoUsuario
+import TipoUsuario._
+
+class LoginLogoutApplication @Inject() (usuarioDB: UsuarioDB) extends Controller with OptionalAuthElement with LoginLogout with AuthConfigImpl {
 
   /** Your application's login form.  Alter it to fit your application */
   val loginForm = Form {
-    mapping("dni" -> text, "password" -> text)(usuarioDB.authenticate)(_.map(u => (u.dni, "")))
+    mapping("dni" -> nonEmptyText, "password" -> nonEmptyText)(usuarioDB.authenticate)(_.map(u => (u.dni, "")))
       .verifying("Invalid dni or password", result => result.isDefined)
   }
 
-  def login = Action { implicit request =>
+  def login = StackAction { implicit request =>
+    if (loggedIn.isDefined)
+      Redirect("/")
+    else
+      Ok(views.html.login(loginForm, userToName(loggedIn)))
     // val errormsg = loginForm.globalError map { _.message } getOrElse ""
-    Ok(views.html.login(loginForm))
+  }
+
+  def signUpAuthenticate(nombre: String,
+    apellidos: String,
+    dni: String,
+    email: String,
+    password: String,
+    passwordConfirm: String,
+    tipoCliente: String): Option[Usuario] = {
+    val result = Usuario(dni, nombre, apellidos, tipoCliente, email, password)
+    val passEq = if (password == passwordConfirm) Some(true) else None
+
+    val passLength = if(password.length() >= 7) Some(true) else None
+
+    passEq flatMap { _ => passLength } map { _ => result }
+  }
+
+  def signupForm = Form {
+    mapping(
+      "nombre" -> nonEmptyText,
+      "apellidos" -> nonEmptyText,
+      "dni" -> nonEmptyText,
+      "email" -> email,
+      "password" -> nonEmptyText,
+      "passwordConfirm" -> nonEmptyText,
+      "tipoCliente" -> nonEmptyText
+    )(signUpAuthenticate)(_.map(u => (u.nombre, u.apellidos, u.dni, u.email, "", "", u.tipo))).verifying("Invalid User", result => result.isDefined)
   }
 
   /**
@@ -61,8 +97,28 @@ class LoginLogoutApplication @Inject() (usuarioDB: UsuarioDB) extends Controller
     */
   def authenticate = Action.async { implicit request =>
     loginForm.bindFromRequest.fold(
-      formWithErrors => Future.successful(BadRequest(views.html.login(formWithErrors))),
+      formWithErrors => Future.successful(BadRequest(views.html.login(formWithErrors, ""))),
       user => gotoLoginSucceeded(user.get.dni)
     )
   }
+
+  def signup = Action.async { implicit request =>
+    signupForm.bindFromRequest.fold(
+      formWithErrors => Future.successful(BadRequest(views.html.login(formWithErrors, ""))),
+      user => {
+        usuarioDB.getUser(user.get.dni) flatMap { userOpt => userOpt match {
+          case Some(_) => Future.successful(Redirect("/login"))
+          case None => {
+            usuarioDB.insert(user.get) flatMap { res =>
+              if (res.isSuccess)
+                gotoLoginSucceeded(user.get.dni)
+              else
+                Future.successful(Redirect("/login"))
+            }
+          }
+        }}
+      }
+    )
+
+  }
 }
diff --git a/server/app/controllers/api/v1/CocheApplication.scala b/server/app/controllers/api/v1/CocheApplication.scala
index 19b56e9..70eb2c9 100644
--- a/server/app/controllers/api/v1/CocheApplication.scala
+++ b/server/app/controllers/api/v1/CocheApplication.scala
@@ -51,7 +51,7 @@ class CocheApplication @Inject() (cocheDB: CocheDB, usuarioDB: UsuarioDB) extend
       json.validate[Coche] map { coche =>
         cocheDB.insert(coche) map { result => result match {
           case Success(newcoche) => Ok(toJson(newcoche))
-          case Failure(e) => println(e); BadRequest(Json.obj("status" -> "Error", "message" -> "Some error"))
+          case Failure(e) => BadRequest(Json.obj("status" -> "Error", "message" -> "Some error"))
         }}
       } getOrElse Future.successful(BadRequest(Json.obj("status" -> "Error", "message" -> "I can't validate the JSON")))
     } getOrElse Future.successful(BadRequest(Json.obj("status" -> "Error", "message" -> "The body was not json (content-type maybe?)")))
diff --git a/server/app/tables/CochesFranquiciaTable.scala b/server/app/tables/CochesFranquiciaTable.scala
index 0bc9abf..3a2881c 100644
--- a/server/app/tables/CochesFranquiciaTable.scala
+++ b/server/app/tables/CochesFranquiciaTable.scala
@@ -30,7 +30,6 @@ class CochesFranquiciaDB @Inject() (protected val dbConfigProvider: DatabaseConf
 
   private val cochesfranquicias = TableQuery[CochesFranquicias]
 
-  // def getByFranquicia(franq: Int) = {
   def getCochesByFranquicia(franq: Int): Future[Seq[String]] = {
     val action = cochesfranquicias
       .filter(x => x.franquicia === franq)
diff --git a/server/app/tables/FranquiciaTable.scala b/server/app/tables/FranquiciaTable.scala
index 2db035c..633ee52 100644
--- a/server/app/tables/FranquiciaTable.scala
+++ b/server/app/tables/FranquiciaTable.scala
@@ -42,11 +42,6 @@ class FranquiciaDB @Inject() (protected val dbConfigProvider: DatabaseConfigProv
   }
 
   def getCoches(id: Int): Future[Seq[Coche]] = {
-    // for {
-    //   cl <- cochesFranquiciaDB.getByFranquicia(id)
-    //   coches <- cocheDB.getCoches(cl)
-    // } yield coches
-
     cochesFranquiciaDB.getCochesByFranquicia(id) flatMap { cocheDB.getCoches(_) }
   }
 
diff --git a/server/app/views/login.scala.html b/server/app/views/login.scala.html
index f19564b..4785724 100644
--- a/server/app/views/login.scala.html
+++ b/server/app/views/login.scala.html
@@ -1,5 +1,9 @@
-@(form: Form[Option[shared.dbclasses.Usuario]])(implicit flash: Flash)
-@main("Login") {
+@(form: Form[Option[shared.dbclasses.Usuario]], user: String = "")(implicit flash: Flash)
+@main("Login", user) {
+
+<link rel="stylesheet" media="screen" href="@routes.Assets.versioned("stylesheets/login_normalize.css")">
+<link rel="stylesheet" media="screen" href="@routes.Assets.versioned("stylesheets/login_style.css")">
+
 <script>
     @defining(form.globalError.map(_.message).getOrElse("")) { errormsg =>
     @defining(flash.get("success").getOrElse("")) { successmsg =>
diff --git a/server/app/views/main.scala.html b/server/app/views/main.scala.html
index dcca50b..f58069f 100644
--- a/server/app/views/main.scala.html
+++ b/server/app/views/main.scala.html
@@ -1,34 +1,74 @@
-@(title: String, header: Html = Html(""), content: Html = Html(""))(javascripts: Html = Html(""))
+@(title: String,
+user: String = "",
+header: Html = Html(""),
+content: Html = Html(""))(javascripts: Html = Html(""))
 <!DOCTYPE html>
 <html>
     <head>
+        <meta charset="UTF-8">
         <title>@title</title>
 
         <script>
-         @Html(org.webjars.RequireJS.getSetupJavaScript(routes.WebJarAssets.at("").url))
+            @Html(org.webjars.RequireJS.getSetupJavaScript(routes.WebJarAssets.at("").url))
         </script>
 
+        <link rel="stylesheet" media="screen" href="@routes.Assets.versioned("stylesheets/login_normalize.css")">
+        <link href='http://fonts.googleapis.com/css?family=Titillium+Web:400,300,600' rel='stylesheet' type='text/css'>
         <link rel="shortcut icon" type="image/png" href="@routes.Assets.versioned("images/favicon.png")">
 
         <link rel="stylesheet" href="@routes.Assets.versioned("lib/font-awesome/css/font-awesome.min.css")">
 
-        <script data-main="@routes.Assets.versioned("lib/jquery/webjars-requirejs.js")"
-                src="@routes.WebJarAssets.at(WebJarAssets.locate("require.min.js"))"></script>
-        <script data-main="@routes.Assets.versioned("lib/bootstrap/webjars-requirejs.js")"
-                src="@routes.WebJarAssets.at(WebJarAssets.locate("require.min.js"))"></script>
+        <!-- <script data-main="@routes.Assets.versioned("lib/jquery/webjars-requirejs.js")" -->
+        <!--         src="@routes.WebJarAssets.at(WebJarAssets.locate("require.min.js"))"></script> -->
+        <!-- <script data-main="@routes.Assets.versioned("lib/bootstrap/webjars-requirejs.js")" -->
+        <!--         src="@routes.WebJarAssets.at(WebJarAssets.locate("require.min.js"))"></script> -->
 
 
-        <link rel="stylesheet" media="screen" href="@routes.Assets.versioned("stylesheets/main.css")">
+        <link rel="stylesheet" href="@routes.Assets.versioned("lib/bootstrap/css/bootstrap.min.css")">
+        <link rel="stylesheet" href="@routes.Assets.versioned("lib/bootstrap-select/dist/css/bootstrap-select.min.css")">
 
+        <link rel="stylesheet" media="screen" href="@routes.Assets.versioned("stylesheets/main.css")">
+        <link rel="stylesheet" media="screen" href="@routes.Assets.versioned("stylesheets/style.css")">
         @header
+
     </head>
     <body>
-<!--    Hacer cabecera      -->
-        <div class="content">@content</div>
+
+        <div id="header"></div>
+
+
+        <div class="container-fluid wrapper">
+            <div class="row">
+                <div class="col-md-1"></div>
+                <div id="content" class="col-md-10">@content</div>
+                <div class="col-md-1"></div>
+            </div>
+        </div>
+
+        <footer>
+            <p>
+                &copy; 2015 potatoesteam
+
+                &nbsp;&nbsp;&nbsp;&nbsp;
+
+                Design by potatoesteam</p>
+        </footer>
+
+
+        <!-- <div id="content-container"> -->
+        <!--     <div id="content" class="content">@content</div> -->
+        <!-- </div> -->
+
+
+
+        @playscalajs.html.scripts("client")
 
         <script src="@routes.Assets.versioned("lib/jquery/jquery.min.js")" type="text/javascript"></script>
         <script src="@routes.Assets.versioned("lib/bootstrap/js/bootstrap.min.js")" type="text/javascript"></script>
-        @playscalajs.html.scripts("client")
+        <script src="@routes.Assets.versioned("lib/bootstrap-select/dist/js/bootstrap-select.min.js")" type="text/javascript"></script>
+        <script>
+            example.Header().main("@user");
+        </script>
         @javascripts
 
     </body>
diff --git a/server/app/views/newmain.scala.html b/server/app/views/newmain.scala.html
index 49cf872..0af73ed 100644
--- a/server/app/views/newmain.scala.html
+++ b/server/app/views/newmain.scala.html
@@ -1,4 +1,5 @@
-@main("Shut up and rent my car") {
+@(user: String = "")
+@main("Shut up and rent my car", user) {
 <script>
     example.NewMain().main()
 </script>
diff --git a/server/app/views/notFound.scala.html b/server/app/views/notFound.scala.html
index b6bfef5..606435f 100644
--- a/server/app/views/notFound.scala.html
+++ b/server/app/views/notFound.scala.html
@@ -1,4 +1,6 @@
 @(path: String)
 @main("404") {
-PATH @path NOT FOUND!
+<script>
+    $("#content").append("PATH @path NOT FOUND!");
+    </script>
 }
diff --git a/server/app/views/reservar.scala.html b/server/app/views/reservar.scala.html
new file mode 100644
index 0000000..dbc307f
--- /dev/null
+++ b/server/app/views/reservar.scala.html
@@ -0,0 +1,19 @@
+@(form: Form[Option[shared.dbclasses.Reserva]],
+coche: String,
+gamaCoche: String,
+franq: Int,
+userid: String,
+both: Boolean,
+user: String = "")(implicit flash: Flash)
+@main("Reservar coche", user) {
+
+<link rel="stylesheet" media="screen" href="@routes.Assets.versioned("stylesheets/login_normalize.css")">
+<link rel="stylesheet" media="screen" href="@routes.Assets.versioned("stylesheets/login_style.css")">
+
+<script>
+    @defining(form.globalError.map(_.message).getOrElse("")) { errormsg =>
+    @defining(flash.get("success").getOrElse("")) { successmsg =>
+    example.Reserva().main("@coche", "@gamaCoche", @franq, "@userid", @both, "@errormsg", "@successmsg");
+    }}
+</script>
+}
diff --git a/server/app/views/showfranquicia.scala.html b/server/app/views/showfranquicia.scala.html
index 59344d6..43cec86 100644
--- a/server/app/views/showfranquicia.scala.html
+++ b/server/app/views/showfranquicia.scala.html
@@ -1,5 +1,5 @@
-@(id: Int, calle: String, numero: Int, pais: String, comunidad: String, poblacion: String, codigopostal: Int)
-@main("Coches") {
+@(id: Int, calle: String, numero: Int, pais: String, comunidad: String, poblacion: String, codigopostal: Int, user: String = "")
+@main("Coches", user) {
 <script>
     example.ShowCochesFranquicia().main(@id, "@calle", @numero, "@pais", "@comunidad", "@poblacion", @codigopostal)
 </script>
diff --git a/server/conf/application.conf b/server/conf/application.conf
index 6d2d5ed..514b674 100644
--- a/server/conf/application.conf
+++ b/server/conf/application.conf
@@ -43,3 +43,9 @@ slick.dbs.default.db.password=""
 # Evolutions
 # ~~~~~
 # evolutionplugin=disabled
+#
+
+# ReCaptcha
+recaptcha.privateKey="6LeoHhETAAAAAKbhA_wS47jz4tGRo6-lBTf0_lKA"
+recaptcha.publicKey="6LeoHhETAAAAADykZpj-hmNE3z2xItPDEjUMshP0"
+recaptcha.apiVersion=2
diff --git a/server/conf/evolutions/default/2.sql b/server/conf/evolutions/default/2.sql
index 5ab9773..8a0dd7f 100644
--- a/server/conf/evolutions/default/2.sql
+++ b/server/conf/evolutions/default/2.sql
@@ -9,9 +9,10 @@ insert into COCHE values ('8273CNP', 'Ford', 'Focus', 'media', FILE_READ('public
 
 insert into USUARIO values ('01211255L', 'Rock', 'Neurotiko', 'admin', 'rockneurotiko@gmail.com', '1234');
 insert into USUARIO values ('W12345', 'IS2Company', 'Yeah', 'empresa', 'ceo@company.com', '12345');
+insert into USUARIO values ('111', 'Usuario', 'Awesome', 'usuario', 'my@gmail.com', '1234');
 
-insert into FRANQUICIA ("CALLE", "NUMERO", "CODIGOPOSTAL", "POBLACION", "COMUNIDAD", "PAIS") values ('C/That', 23, 28080, 'Madrid', 'Madrid', 'España');
-insert into FRANQUICIA ("CALLE", "NUMERO", "CODIGOPOSTAL", "POBLACION", "COMUNIDAD", "PAIS") values ('C/Other', 1, 42230, 'Zaragoza', 'Zaragoza', 'España');
+insert into FRANQUICIA values (1, 'C/That', 23, 28080, 'Madrid', 'Madrid', 'España');
+insert into FRANQUICIA values (2, 'C/Other', 1, 42230, 'Zaragoza', 'Zaragoza', 'España');
 
 insert into COCHESFRANQUICIA ("FRANQUICIA", "COCHE") values (1, '1778BGN');
 insert into COCHESFRANQUICIA ("FRANQUICIA", "COCHE") values (1, '8273CNP');
diff --git a/server/conf/routes b/server/conf/routes
index f329e38..843e3cc 100644
--- a/server/conf/routes
+++ b/server/conf/routes
@@ -6,18 +6,23 @@ GET /coches controllers.Application.showCars
 
 # Home page
 # GET      /save/:name                      controllers.Application.saveCookie(name)
-GET      /rxtimer                         controllers.Application.rxtimer
+# GET      /rxtimer                         controllers.Application.rxtimer
 # GET      /load                            controllers.Application.loadCookie
-GET      /                                controllers.Application.main(name = "")
+# GET      /                                controllers.Application.main(name = "")
 # GET      /:name                           controllers.Application.main(name: String)
 
+GET / controllers.AwesomeApplication.main
+
 GET /login controllers.LoginLogoutApplication.login
 POST /login controllers.LoginLogoutApplication.authenticate
 GET /logout controllers.LoginLogoutApplication.logout
 
-GET /new controllers.AwesomeApplication.main
+POST /signup controllers.LoginLogoutApplication.signup
+
 
 GET /vercoches/:id controllers.AwesomeApplication.showCochesFranquicia(id: Int)
+GET /reservar/:id/:coche controllers.AwesomeLoggedApplication.reservarCocheFranquicia(id: Int, coche: String)
+POST /reservar/:id/:coche controllers.AwesomeLoggedApplication.postReserva(id: Int, coche: String)
 
 ## API V1
 
diff --git a/server/test/integration/IntegratioSpec.scala b/server/test/integration/IntegratioSpec.scala
index ea341e5..65702d9 100644
--- a/server/test/integration/IntegratioSpec.scala
+++ b/server/test/integration/IntegratioSpec.scala
@@ -12,7 +12,7 @@ import play.api.test.Helpers._
 class IntegrationSpec extends Specification {
   "CocheApplication" should {
     "work from within a browser" in {
-        val port = 3336
+      val port = 3336
       running(TestServer(port), HTMLUNIT) { browser =>
         browser.goTo("http://localhost:"+port+"/api/v1/coches")
         browser.pageSource must contain("1778BGN")
diff --git a/server/test/specs/CochesApplicationSpec.scala b/server/test/specs/CochesApplicationSpec.scala
index 6e8d81b..7034808 100644
--- a/server/test/specs/CochesApplicationSpec.scala
+++ b/server/test/specs/CochesApplicationSpec.scala
@@ -24,8 +24,7 @@ class CochesApplicationSpec extends PlaySpecification {
   def LoginAdmin(): Cookie = {
     val result2 = route(FakeRequest(POST, "/login", headers=FakeHeaders(Seq(("Content-Type" -> "application/x-www-form-urlencoded"))), body="dni=01211255L&password=1234")).get
     val cookie = Await.result(result2, 2 seconds).header.headers("Set-Cookie")
-    Cookies.decodeSetCookieHeader(cookie)(0)
-    // Await.result(result2, 2 seconds).header.headers("Set-Cookie").stripPrefix("PLAY2AUTH_SESS_ID=")
+    Cookies.decodeSetCookieHeader(cookie)(1)
   }
 
   "CochesApplication" should {
@@ -55,6 +54,7 @@ class CochesApplicationSpec extends PlaySpecification {
       ).withCookies(cookie)
 
       val result = route(postRequest).get
+
       status(result) mustEqual OK
 
       val getPetition = route(FakeRequest(GET, "/api/v1/coches")).get
